spawns	name	room	loc_x	loc_y	loc_z	yaw	script	mood	animation_mood	respawn_time	spawn_objvar	special_room	special_room_script	room_objvar	room_objvar_name	room_objvar_value
s	s	s	f	f	f	f	s	s	s	i	s	s	s	s	s	s
huff_darklighter		lobby	-1.6	1	2.1	-56	conversation.huff_darklighter			1	int:ai.defaultCalmBehavior=1					
huff_guard		world	-692	8	-6732	43				1	int:ai.defaultCalmBehavior=1					
jowir_arlensa	Jowir Arlensa	world	-5291	75	-6551	-71	npc.static_quest.quest_convo			1	"string:quest_table=tato_zicx_jowir,int:ai.defaultCalmBehavior=1"					
