objid	container	server_template_crc	cell_index	px	py	pz	qw	qx	qy	qz	scripts	objvars
i	i	h	i	f	f	f	f	f	f	f	s	p
5407162	0	object/building/general/rori_bat_cave.iff	0	848.8	99.5441	1263.75	0.382683	0	0.92388	0	theme_park.dungeon.generic_spawner	spawn_table|4|datatables/spawning/poi_spawner/rori/borgle_bat_cave.iff|$|
5407163	5407162	object/cell/cell.iff	1	0	0	0	1	1.40E-45	0	0		$|
5407164	5407162	object/cell/cell.iff	2	0	0	0	1	2.80E-45	0	0		$|
5407165	5407162	object/cell/cell.iff	3	0	0	0	1	4.20E-45	0	0		$|
8795683	5407165	object/tangible/container/loot/placable_loot_crate_trashpile.iff	3	4.920031	-41.05464	-75.1324	1	0	0	0		$|
5407166	5407162	object/cell/cell.iff	4	0	0	0	1	5.61E-45	0	0		$|
8795684	5407166	object/tangible/container/loot/placable_loot_crate_trashpile.iff	4	51.48198	-45.4791	-100.6064	1	0	0	0		$|
5407167	5407162	object/cell/cell.iff	5	0	0	0	1	7.01E-45	0	0		$|
8795685	5407167	object/tangible/container/loot/placable_loot_crate_trashpile.iff	5	46.74239	-56.40314	-186.6111	1	0	0	0		$|
5407168	5407162	object/cell/cell.iff	6	0	0	0	1	8.41E-45	0	0		$|
5407169	5407162	object/cell/cell.iff	7	0	0	0	1	9.81E-45	0	0		$|
8795686	5407169	object/tangible/container/loot/placable_loot_crate_trashpile.iff	7	-19.83009	-62.89315	-260.9982	1	0	0	0		$|
5407170	5407162	object/cell/cell.iff	8	0	0	0	1	1.12E-44	0	0		$|
4796076	5407170	object/tangible/collection/rare_pistol_mustafarian_modified_disruptor.iff	8	-46.54605	-70.1603	-187.9943	0.7989421	0	-0.01627748	-0.01162067		$|
8795687	5407170	object/tangible/container/loot/placable_loot_crate_trashpile.iff	8	-76.98574	-99.69286	-162.5365	1	0	0	0		$|
5407171	5407162	object/cell/cell.iff	9	0	0	0	1	1.26E-44	0	0		$|
5407172	5407162	object/cell/cell.iff	10	0	0	0	1	1.40E-44	0	0		$|
5407173	5407162	object/cell/cell.iff	11	0	0	0	1	1.54E-44	0	0		$|
8795688	5407173	object/tangible/container/loot/placable_loot_crate_trashpile.iff	11	-100.5877	-100.5984	-94.62367	1	0	0	0		$|
8795689	5407173	object/tangible/container/loot/placable_loot_crate_trashpile.iff	11	-83.95171	-99.92654	-93.6864	1	0	0	0		$|
