objid	container	server_template_crc	cell_index	px	py	pz	qw	qx	qy	qz	scripts	objvars
i	i	h	i	f	f	f	f	f	f	f	s	p
4505485	0	object/static/structure/military/military_column_strong_rebel_style_01.iff	0	1590.48	96.5055	1794.38	0.802096	0	-0.597195	0		$|
4505486	0	object/static/structure/military/military_wall_strong_rebl_32_style_01.iff	0	1607.66	96	1794.4	1	0	0	0		$|
4505487	0	object/static/structure/military/military_column_strong_rebel_style_01.iff	0	1624.42	96	1794.39	1	0	0	0		$|
4505488	0	object/static/structure/military/military_wall_strong_rebl_32_style_01.iff	0	1640.66	96	1794.4	1	0	0	0		$|
4505489	0	object/static/structure/military/military_column_strong_rebel_style_01.iff	0	1657.48	96	1794.89	0.896052	0	0.443948	0		$|
4505490	0	object/static/structure/military/military_wall_strong_rebl_32_style_01.iff	0	1657.66	96	1778.4	0.707107	0	0.707107	0		$|
4505491	0	object/static/structure/military/military_column_strong_rebel_style_01.iff	0	1657.66	96	1761.4	0.707107	0	0.707107	0		$|
4505492	0	object/static/structure/military/military_wall_strong_rebl_32_style_01.iff	0	1657.66	96	1745.4	0.707107	0	0.707107	0		$|
4505493	0	object/static/structure/military/military_column_strong_rebel_style_01.iff	0	1657.66	96	1728.4	0.707107	0	0.707107	0		$|
4505494	0	object/static/structure/military/military_wall_strong_rebl_32_style_01.iff	0	1657.66	95.9991	1711.4	0.707107	0	0.707107	0		$|
4505495	0	object/static/structure/military/military_column_strong_rebel_style_01.iff	0	1657.66	96	1694.4	0.300673	0	0.953728	0		$|
4505496	0	object/static/structure/military/military_wall_strong_rebl_32_style_01.iff	0	1590.66	95.6251	1709.4	-0.707107	0	0.707107	0		$|
4505497	0	object/static/structure/military/military_column_strong_rebel_style_01.iff	0	1590.66	95.7288	1694.36	-0.21823	0	0.975897	0		$|
4505498	0	object/static/structure/military/military_wall_strong_rebl_32_style_01.iff	0	1590.66	95.6409	1743.4	-0.707107	0	0.707107	0		$|
4505499	0	object/static/structure/military/military_wall_strong_rebl_32_style_01.iff	0	1590.66	95.6779	1777.4	-0.707107	0	0.707107	0		$|
4505500	0	object/static/structure/military/military_column_strong_rebel_style_01.iff	0	1590.48	96	1726.41	0.72827	0	-0.68529	0		$|
4505501	0	object/static/structure/military/military_column_strong_rebel_style_01.iff	0	1590.6	96	1760.53	0.745174	0	-0.66687	0		$|
4505504	0	object/static/structure/military/military_column_strong_rebel_style_01.iff	0	1657.28	96	1749.44	0.707107	0	0.707107	0		$|
4505509	0	object/static/structure/military/military_column_strong_rebel_style_01.iff	0	1592	96	1749	0.831162	0	-0.55603	0		$|
4505510	0	object/static/structure/military/military_wall_med_rebl_16_style_01.iff	0	1649	96	1749	1	0	0	0		$|
4505511	0	object/static/structure/military/military_wall_med_rebl_16_style_01.iff	0	1633	96	1749	1	0	0	0		$|
4505512	0	object/static/structure/military/military_wall_med_rebl_16_style_01.iff	0	1600	96	1749	1	0	0	0		$|
4505516	0	object/static/structure/military/military_column_med_rebel_style_01.iff	0	1625	96	1749	1	0	0	0		$|
4505517	0	object/static/structure/military/military_column_med_rebel_style_01.iff	0	1608	96	1749	1	0	0	0		$|
4505518	0	object/static/structure/military/military_column_med_rebel_style_01.iff	0	1641	96	1749	1	0	0	0		$|
4505529	0	object/building/military/outpost_starport.iff	0	1623.56	96	1770.8	3.20E-08	0	1	0	structure.municipal.starport	travel.air_time|0|60|travel.cost|0|150|travel.ground_time|0|300|travel.point_name|4|Rebel Outpost|travel.shuttle_available|0|1|travel.version|0|3|$|
4505530	4505529	object/cell/cell.iff	1	0	0	0	1	1.40E-45	0	0		$|
3315599	4505530	object/tangible/terminal/terminal_space.iff	1	-7.405805	0.146595	-19.10296	1	0	0	0		$|
4505531	0	object/static/structure/military/military_wall_weak_rebl_style_01.iff	0	1625.91	94.6633	1771.79	0.707108	0	-0.707105	0		$|
4505533	0	object/static/structure/military/military_column_med_rebel_style_01.iff	0	1625.87	94.9005	1768.22	1	0	0	0		$|
4505534	0	object/static/structure/military/military_wall_weak_rebl_style_01.iff	0	1629.72	94.7013	1768.08	1	0	0	0		$|
4505535	0	object/static/structure/military/military_wall_weak_rebl_style_01.iff	0	1614.25	94.7248	1768.27	-4.95E-07	0	1	0		$|
4505536	0	object/static/structure/military/military_column_med_rebel_style_01.iff	0	1617.82	94.962	1768.23	0.707107	0	-0.707106	0		$|
4505537	0	object/static/structure/military/military_wall_weak_rebl_style_01.iff	0	1617.96	94.7628	1772.08	0.707107	0	-0.707106	0		$|
4505538	0	object/static/structure/military/military_column_med_rebel_style_01.iff	0	1634	94.8926	1768.09	1	0	0	0		$|
4505539	0	object/static/structure/military/military_column_med_rebel_style_01.iff	0	1625.79	96	1775.59	1	0	0	0		$|
4505540	0	object/static/structure/military/military_column_med_rebel_style_01.iff	0	1610.28	94.971	1768.25	1	0	0	0		$|
4505541	0	object/static/structure/military/military_column_med_rebel_style_01.iff	0	1617.92	94.9977	1775.8	1	0	0	0		$|
4505542	0	object/tangible/terminal/terminal_bank.iff	0	1617.09	96	1773.83	0.707107	0	-0.707106	0		$|
4505543	0	object/tangible/terminal/terminal_bank.iff	0	1612.72	96	1769.21	1	0	0	0		$|
4505545	0	object/tangible/terminal/terminal_bazaar.iff	0	1615.88	96	1770.4	0.930508	0	-0.366273	0		$|
4505547	0	object/tangible/crafting/station/public_weapon_station.iff	0	1629.25	96	1769.58	1	0	0	0		$|
4505548	0	object/tangible/crafting/station/public_structure_station.iff	0	1627.08	96	1772.46	0.707107	0	0.707107	0		$|
4505549	0	object/static/structure/general/streetlamp_medium_style_01.iff	0	1635.42	95.8419	1768.14	0.703845	0	0.710353	0		$|
4505550	0	object/static/structure/general/streetlamp_medium_style_01.iff	0	1608.73	95.8562	1768.37	0.735088	0	-0.677971	0		$|
4505551	0	object/static/structure/military/military_wall_weak_rebl_style_01.iff	0	1625.87	94.706	1763.73	0.707107	0	0.707107	0		$|
4505552	0	object/static/structure/military/military_column_med_rebel_style_01.iff	0	1625.84	94.8972	1759.86	0.707107	0	0.707107	0		$|
4505553	0	object/static/structure/military/military_wall_weak_rebl_style_01.iff	0	1618.01	94.77	1764.11	0.707107	0	0.707107	0		$|
4505554	0	object/static/structure/military/military_column_med_rebel_style_01.iff	0	1618.02	94.9613	1759.83	0.707107	0	0.707107	0		$|
4505555	0	object/tangible/crafting/station/public_clothing_station.iff	0	1627.6	96	1763.22	3.20E-08	0	1	0		$|
4505556	0	object/tangible/crafting/station/public_food_station.iff	0	1630.53	96	1766.74	3.20E-08	0	1	0		$|
4505557	0	object/tangible/terminal/terminal_mission_rebel.iff	0	1616.42	96.0035	1766.63	-0.348337	0	0.937369	0		$|
4505559	0	object/tangible/terminal/terminal_mission.iff	0	1612.89	96.0242	1767.6	3.20E-08	0	1	0		$|
4505561	0	object/tangible/terminal/terminal_mission.iff	0	1617.31	96	1762.79	0.707107	0	-0.707106	0		$|
4505563	0	object/static/structure/tatooine/debris_tatt_crate_metal_1.iff	0	1615.03	96	1766.76	0.896052	0	-0.443948	0		$|
4505564	0	object/static/structure/tatooine/debris_tatt_crate_1.iff	0	1614.36	96	1767.27	0.896052	0	-0.443948	0		$|
4505565	0	object/static/item/item_crate_clothing_small.iff	0	1627.01	96	1761.18	-0.689499	0	0.724287	0		$|
4505569	0	object/static/item/item_container_organic_hide.iff	0	1632.89	96	1766.63	1	0	0	0		$|
4505570	0	object/static/item/item_jar_berries.iff	0	1633.54	96	1766.68	1	0	0	0		$|
4505571	0	object/static/item/item_jar_bugs.iff	0	1633.5	96	1766.44	1	0	0	0		$|
4505572	0	object/static/item/item_bottle_tall.iff	0	1633.94	96	1766.68	1	0	0	0		$|
4505573	0	object/static/item/item_bottle_fat.iff	0	1633.97	96	1766.32	1	0	0	0		$|
4505574	0	object/static/item/item_con_plate_s1_full.iff	0	1632.88	96.4427	1766.64	1	0	0	0		$|
4505575	0	object/static/item/item_carbine_dh17.iff	0	1632.93	96.0697	1769.21	0.735088	0	0	0.677972		$|
4505576	0	object/static/item/item_rifle.iff	0	1633.18	96.0345	1768.98	0.714421	0	0	0.699716		$|
4505577	0	object/static/item/item_ryyk_blade.iff	0	1632.4	96.1395	1769.97	0.00399685	0.00130237	0.950788	-0.309814		$|
4505578	0	object/static/structure/general/droid_r2_powerdown.iff	0	1633.96	96	1769.75	3.20E-08	0	1	0		$|
4505579	0	object/static/structure/tatooine/palette_tatooine_style_01.iff	0	1628.1	96	1775.54	1	0	0	0		$|
4505580	0	object/tangible/furniture/tatooine/frn_tato_table_small_style_02.iff	0	1628.08	96.146	1775.06	1	0	0	0		$|
4505581	0	object/tangible/furniture/tatooine/frn_tato_table_small_style_01.iff	0	1628.28	96.7811	1776.05	3.20E-08	1	0	0		$|
4505582	0	object/static/structure/tatooine/debris_tatt_crate_1.iff	0	1592.88	96	1791.34	1	0	0	0		$|
4505583	0	object/static/structure/tatooine/debris_tatt_crate_metal_1.iff	0	1593.63	96	1790.63	1	0	0	0		$|
4505584	0	object/static/structure/tatooine/debris_tatt_drum_dented_1.iff	0	1594.86	96	1791.64	1	0	0	0		$|
4505585	0	object/static/structure/tatooine/debris_tatt_drum_storage_1.iff	0	1592.54	96	1789.29	1	0	0	0		$|
4505586	0	object/static/structure/tatooine/debris_tatt_drum_storage_2.iff	0	1593.62	96.0001	1792.11	1	0	0	0		$|
4505589	0	object/static/structure/military/military_wall_strong_rebl_16_style_01.iff	0	1650	96	1695	3.20E-08	0	1	0		$|
4505590	0	object/static/structure/military/military_wall_strong_rebl_16_style_01.iff	0	1598	95.9981	1695	3.20E-08	0	1	0		$|
4505592	0	object/static/structure/military/military_wall_strong_rebl_16_style_01.iff	0	1634	96	1695	3.20E-08	0	1	0		$|
4505593	0	object/static/structure/military/military_column_strong_rebel_style_01.iff	0	1626.25	96	1695.3	-0.378059	0	0.925781	0		$|
4505594	0	object/static/structure/military/military_column_strong_rebel_style_01.iff	0	1607	96	1695	0.389418	0	0.921061	0		$|
4505595	0	object/static/structure/military/military_wall_strong_rebl_16_style_01.iff	0	1626	96	1703	0.707107	0	-0.707106	0		$|
4505596	0	object/static/structure/military/military_column_strong_rebel_style_01.iff	0	1625.99	96	1710.3	0.901273	0	-0.433251	0		$|
4505597	0	object/static/structure/military/military_wall_strong_rebl_16_style_01.iff	0	1606.88	96	1702.93	0.707107	0	0.707107	0		$|
4505598	0	object/static/structure/military/military_column_strong_rebel_style_01.iff	0	1607.01	96	1711.13	0.694195	0	0.719787	0		$|
4505599	0	object/building/military/military_outpost_guard_house_rebel.iff	0	1633.83	96	1706.04	5.31E-08	0	1	0		$|
4505600	4505599	object/cell/cell.iff	1	0	0	0	1	1.40E-45	0	0		$|
4505601	4505599	object/cell/cell.iff	2	0	0	0	1	2.80E-45	0	0		$|
4505929	4505601	object/static/item/item_tapestry_rebel.iff	2	-3.546089	1.219497	5.01803	0.7071076	0	-0.7071059	0		$|
4505602	0	object/building/military/military_outpost_guard_house_rebel.iff	0	1598.4	96	1703.08	3.20E-08	0	1	0		$|
4505603	4505602	object/cell/cell.iff	1	0	0	0	1	1.40E-45	0	0		$|
4505604	4505602	object/cell/cell.iff	2	0	0	0	1	2.80E-45	0	0		$|
4505919	4505604	object/static/item/item_tapestry_rebel.iff	2	-2.92042	1.250958	5.507758	1	0	0	0		$|
4505605	0	object/building/military/outpost_cloning_facility.iff	0	1599.65	96	1740.21	0.707106	0	0.707107	0		$|
4505606	4505605	object/cell/cell.iff	1	0	0	0	1	1.40E-45	0	0		$|
4505607	4505605	object/cell/cell.iff	2	0	0	0	1	2.80E-45	0	0		$|
4505608	4505605	object/cell/cell.iff	3	0	0	0	1	4.20E-45	0	0		$|
4505609	4505605	object/cell/cell.iff	4	0	0	0	1	5.61E-45	0	0		$|
4505610	4505605	object/cell/cell.iff	5	0	0	0	1	7.01E-45	0	0		$|
4505611	4505605	object/cell/cell.iff	6	0	0	0	1	8.41E-45	0	0		$|
4505633	0	object/building/corellia/ply_corl_house_m_s01_fp1.iff	0	1645.64	96	1735.29	0.707108	0	-0.707105	0		$|
4505634	4505633	object/cell/cell.iff	1	0	0	0	1	1.40E-45	0	0		$|
4505671	4505634	object/static/item/item_music_microphone_s2.iff	1	9.491264	0.624998	3.617171	1	0	0	0		$|
4505672	4505634	object/tangible/furniture/tatooine/frn_tatt_chair_cantina_seat.iff	1	0.6041033	0.624999	0.5818626	0.7071066	0	0.7071068	0		$|
4505674	4505634	object/tangible/furniture/tatooine/frn_tato_table_small_style_01.iff	1	1.641106	0.624999	0.6419963	1	0	0	0		$|
4505675	4505634	object/tangible/furniture/tatooine/frn_tatt_chair_cantina_seat.iff	1	2.711609	0.624999	0.6771407	0.707107	0	-0.7071065	0		$|
4505676	4505634	object/tangible/furniture/tatooine/frn_tatt_chair_cantina_seat.iff	1	5.94803	0.624998	0.7576756	0.7071077	0	-0.7071058	0		$|
4505677	4505634	object/tangible/furniture/tatooine/frn_tato_table_small_style_01.iff	1	4.911159	0.624998	0.6973575	-1.84E-06	0	0.9999998	0		$|
4505678	4505634	object/tangible/furniture/tatooine/frn_tatt_chair_cantina_seat.iff	1	3.840887	0.624998	0.6621709	0.707106	0	0.7071075	0		$|
4505679	4505634	object/tangible/furniture/tatooine/frn_tatt_chair_cantina_seat.iff	1	5.966442	0.624999	6.30398	0.7071077	0	-0.7071058	0		$|
4505680	4505634	object/tangible/furniture/tatooine/frn_tato_table_small_style_01.iff	1	4.929079	0.624999	6.243861	-1.84E-06	0	0.9999998	0		$|
4505681	4505634	object/tangible/furniture/tatooine/frn_tatt_chair_cantina_seat.iff	1	0.5040379	0.624999	3.320443	0.707106	0	0.7071075	0		$|
4505682	4505634	object/tangible/furniture/tatooine/frn_tatt_chair_cantina_seat.iff	1	0.622139	0.624999	6.128098	0.7071053	0	0.7071082	0		$|
4505683	4505634	object/tangible/furniture/tatooine/frn_tato_table_small_style_01.iff	1	1.659044	0.624999	6.188837	1	0	0	0		$|
4505684	4505634	object/tangible/furniture/tatooine/frn_tatt_chair_cantina_seat.iff	1	2.729456	0.624999	6.223674	0.7071084	0	-0.707105	0		$|
4505685	4505634	object/tangible/furniture/tatooine/frn_tatt_chair_cantina_seat.iff	1	3.805795	0.624999	6.242544	0.7071053	0	0.7071082	0		$|
4505686	4505634	object/tangible/furniture/tatooine/frn_tato_table_small_style_01.iff	1	1.701301	0.624999	3.308748	1	0	0	0		$|
4505687	4505634	object/tangible/furniture/tatooine/frn_tatt_chair_cantina_seat.iff	1	2.771571	0.624999	3.343933	0.7071098	0	-0.7071037	0		$|
4505688	4505634	object/tangible/furniture/tatooine/frn_tatt_chair_cantina_seat.iff	1	6.008483	0.624999	3.424512	0.7071105	0	-0.707103	0		$|
4505689	4505634	object/tangible/furniture/tatooine/frn_tato_table_small_style_01.iff	1	4.971334	0.624999	3.363773	-4.71E-06	0	0.9999998	0		$|
4505690	4505634	object/tangible/furniture/tatooine/frn_tatt_chair_cantina_seat.iff	1	3.900851	0.624999	3.329208	0.7071046	0	0.7071089	0		$|
4505692	4505634	object/static/structure/general/streetlamp_medium_blue_style_02.iff	1	13.00801	3.72578	3.512468	0.4999999	0	0.5000001	-0.4999999		$|
4505693	4505634	object/static/item/item_tapestry_rebel.iff	1	1.238656	0.624999	0.07396229	0.707108	0	-0.7071055	0		$|
4505694	4505634	object/static/item/item_tapestry_rebel.iff	1	1.092767	0.624999	6.894743	0.707107	0	-0.7071065	0		$|
4505695	4505634	object/soundobject/soundobject_cantina_small.iff	1	7.749078	0.624998	3.883132	1	0	0	0		$|
4505765	4505634	object/static/item/item_tapestry_rebel.iff	1	1.450487	0.624999	0.02561189	0.9323274	0	-0.3616154	0		$|
4505635	4505633	object/cell/cell.iff	2	0	0	0	1	2.80E-45	0	0		$|
7375869	4505635	object/tangible/space/content_infrastructure/ground_npc_spawner.iff	2	-8.4	0.6	3.6	0.11057	0	0.993868	0	space.content_tools.npc_spawner	$|
4505726	4505635	object/static/item/item_tapestry_rebel.iff	2	-10.28829	0.625	1.48086	-2.00E-06	0	1	0		$|
4505733	4505635	object/static/item/item_medic_bacta_tank_advanced.iff	2	-9.183241	0.625	5.192647	0.4151404	0	0.9097574	0		$|
4505734	4505635	object/static/item/item_medic_bacta_tank_advanced.iff	2	-8.711519	0.625	5.680839	0.3515288	0	0.9361771	0		$|
4505735	4505635	object/static/item/item_container_energy_gas.iff	2	-7.920948	0.625	6.291629	0.9800666	0	-0.1986693	0		$|
4505736	4505635	object/static/item/item_container_energy_liquid.iff	2	-9.69068	0.625	4.596291	1	0	0	0		$|
4505737	4505635	object/static/item/item_container_energy_liquid.iff	2	-9.620654	0.625	4.912351	1	0	0	0		$|
4505738	4505635	object/static/item/item_container_energy_liquid.iff	2	-9.380367	0.625	4.703782	1	0	0	0		$|
4505739	4505635	object/static/item/item_container_energy_radioactive.iff	2	-6.423926	0.625	6.353168	0.997551	0	-0.06994285	0		$|
4505740	4505635	object/static/item/item_container_energy_solid.iff	2	-9.717464	0.625	2.381536	0.9610555	0	0.2763556	0		$|
4505741	4505635	object/static/item/item_container_inorganic_chemicals.iff	2	-7.601282	0.625	5.741432	0.8138786	0	0.581035	0		$|
4505742	4505635	object/static/item/item_container_inorganic_gas.iff	2	-9.819686	0.625	3.052765	1	0	0	0		$|
4505743	4505635	object/static/item/item_container_inorganic_minerals.iff	2	-4.670176	0.625	5.413247	0.9014456	0	-0.4328925	0		$|
4505744	4505635	object/static/item/item_container_organic_food.iff	2	-4.802022	0.625	0.9886178	0.9915619	0	-0.1296341	0		$|
4505745	4505635	object/static/item/item_container_organic_food.iff	2	-4.173181	0.625	1.459852	0.8915684	0	-0.452886	0		$|
4505746	4505635	object/static/item/item_container_organic_food.iff	2	-4.430907	0.625	1.182166	0.9460424	0	-0.3240429	0		$|
4505747	4505635	object/static/item/item_container_organic_hide.iff	2	-5.291845	0.625	0.7855212	0.990216	0	-0.1395431	0		$|
4505748	4505635	object/static/item/item_container_organic_hide.iff	2	-4.145514	0.625	2.074145	1	0	0	0		$|
4505749	4505635	object/static/item/item_container_organic_structure.iff	2	-9.215654	0.625	1.779858	1	0	0	0		$|
4505750	4505635	object/static/item/item_container_organic_food.iff	2	-4.717001	0.625	1.568099	0.9460424	0	-0.3240429	0		$|
4505636	4505633	object/cell/cell.iff	3	0	0	0	1	4.20E-45	0	0		$|
4505751	4505636	object/tangible/furniture/modern/bar_counter_s1.iff	3	-7.647404	0.624999	-7.425157	0.7071076	0	-0.7071059	0		$|
4505753	4505636	object/static/item/item_medic_bag.iff	3	-7.565553	1.826664	-7.51398	0.7109127	0	0	-0.7032803		$|
4505754	4505636	object/static/item/item_medic_stimpack.iff	3	-7.533255	1.795041	-8.437985	0.7550933	0	0	0		$|
4505755	4505636	object/static/item/item_medic_stimpack.iff	3	-7.418466	1.795041	-8.44736	0.7550933	0	0	0		$|
4505756	4505636	object/static/item/item_medical_console.iff	3	-7.514773	1.795041	-6.290318	-0.1896409	0	0.9818535	0		$|
4505757	4505636	object/static/item/item_bacta_ampules.iff	3	-7.360148	1.795041	-8.122215	0.7038454	0	0	0		$|
4505758	4505636	object/static/item/item_bacta_ampules.iff	3	-7.410393	1.795041	-8.177347	0.7038454	0	0	0		$|
4505759	4505636	object/static/item/item_medic_stimpack.iff	3	-7.64538	1.795041	-8.425193	0.7550933	0	0	0		$|
4505760	4505636	object/static/item/item_raw_cloth.iff	3	-7.371133	1.731796	-7.233661	1	0	0	0		$|
4505761	4505636	object/static/item/item_ribbon.iff	3	-7.274271	1.795041	-6.962829	0.7179101	0	0	0		$|
4505762	4505636	object/static/item/item_sewing_utensils.iff	3	-7.673272	1.795041	-6.847098	-0.700276	0	0.003569303	0.7138547		$|
4505764	4505636	object/static/item/item_tapestry_rebel.iff	3	4.093131	0.624999	-6.246347	0.9249091	0	0.3801884	0		$|
4505766	4505636	object/tangible/furniture/all/frn_all_bed_sm_s1.iff	3	-4.448927	0.625	-2.564563	3.20E-08	0	1	0		$|
4505767	4505636	object/tangible/furniture/all/frn_all_bed_sm_s1.iff	3	-2.870418	0.625	-2.529817	-2.00E-07	0	0.9999998	0		$|
4505768	4505636	object/tangible/furniture/all/frn_all_bed_sm_s1.iff	3	-1.242616	0.625	-2.519544	-2.00E-07	0	0.9999998	0		$|
4505769	4505636	object/tangible/furniture/all/frn_all_bed_sm_s1.iff	3	0.3538901	0.624999	-2.519173	-2.00E-07	0	0.9999998	0		$|
4505770	4505636	object/tangible/furniture/all/frn_all_bed_sm_s1.iff	3	-4.452084	0.624999	-6.301472	1	0	0	0		$|
4505771	4505636	object/tangible/furniture/all/frn_all_bed_sm_s1.iff	3	-2.855529	0.624999	-6.301317	1	0	0	0		$|
4505772	4505636	object/tangible/furniture/all/frn_all_bed_sm_s1.iff	3	-1.227604	0.624999	-6.291201	1	0	0	0		$|
4505773	4505636	object/tangible/furniture/all/frn_all_bed_sm_s1.iff	3	0.3505715	0.624999	-6.256339	1	0	0	0		$|
4505637	4505633	object/cell/cell.iff	4	0	0	0	1	5.61E-45	0	0		$|
4505710	4505637	object/tangible/furniture/modern/rug_rnd_sml_s01.iff	4	7.72771	0.5933772	-4.402405	1	0	0	0		$|
4505711	4505637	object/tangible/furniture/all/frn_all_bed_lg_s1.iff	4	9.014133	0.625	-4.503204	0.707107	0	-0.7071065	0		$|
4505712	4505637	object/tangible/furniture/all/frn_all_bed_lg_s1.iff	4	7.830316	0.625	-5.474354	1	0	0	0		$|
4505713	4505637	object/tangible/furniture/all/frn_all_bed_lg_s1.iff	4	7.869093	0.625	-3.456578	-1.00E-06	0	1	0		$|
4505714	4505637	object/tangible/furniture/modern/end_table_small_modern_style_01.iff	4	10.44572	0.625	-5.874366	0.1937666	0	0.9810476	0		$|
4505715	4505637	object/tangible/furniture/modern/end_table_small_modern_style_01.iff	4	6.400955	0.625	-7.087361	-0.3826834	0	0.9238796	0		$|
4505716	4505637	object/tangible/furniture/modern/end_table_small_modern_style_01.iff	4	6.400158	0.625	-1.779258	0.3826835	0	0.9238795	0		$|
4505718	4505637	object/tangible/furniture/all/frn_all_potted_plants_sml_s05.iff	4	9.594031	0.625	-2.549354	1	0	0	0		$|
4505723	4505637	object/tangible/furniture/all/frn_all_decorative_sm_s3.iff	4	4.684651	0.625	-5.639022	0.7071066	0	0.7071068	0		$|
4505724	4505637	object/tangible/furniture/all/frn_all_decorative_sm_s3.iff	4	4.694677	0.625	-3.356906	0.7071066	0	0.7071068	0		$|
4505663	0	object/building/military/outpost_shed_s04.iff	0	1599.65	96	1725.2	0.707107	0	0.707107	0	theme_park.dungeon.generic_spawner	spawn_table|4|datatables/spawning/building_spawns/rori_reb_outpost_shed.iff|$|
4505664	4505663	object/cell/cell.iff	1	0	0	0	1	1.40E-45	0	0		$|
4505665	4505663	object/cell/cell.iff	2	0	0	0	1	2.80E-45	0	0		$|
4505666	4505663	object/cell/cell.iff	3	0	0	0	1	4.20E-45	0	0		$|
4505667	4505663	object/cell/cell.iff	4	0	0	0	1	5.61E-45	0	0		$|
4505668	4505663	object/cell/cell.iff	5	0	0	0	1	7.01E-45	0	0		$|
4505669	4505663	object/cell/cell.iff	6	0	0	0	1	8.41E-45	0	0		$|
4505788	0	object/building/corellia/ply_corl_house_s_s01_fp2.iff	0	1648.91	96	1704.22	1	0	0	0	theme_park.dungeon.generic_spawner	spawn_table|4|datatables/spawning/building_spawns/rori_reb_outpost_house.iff|$|
4505789	4505788	object/cell/cell.iff	1	0	0	0	1	1.40E-45	0	0		$|
4505790	4505788	object/cell/cell.iff	2	0	0	0	1	2.80E-45	0	0		$|
4505791	4505788	object/cell/cell.iff	3	0	0	0	1	4.20E-45	0	0		$|
4505794	4505791	object/tangible/furniture/all/frn_all_bed_sm_s1.iff	3	2.284715	0.74	4.043636	3.20E-08	0	1	0		$|
4505795	4505791	object/tangible/furniture/all/frn_all_bed_sm_s1.iff	3	3.800081	0.74	4.064043	3.20E-08	0	1	0		$|
4505796	4505791	object/tangible/furniture/all/frn_all_bed_sm_s1.iff	3	5.217897	0.74	4.066031	3.20E-08	0	1	0		$|
4505797	4505791	object/tangible/furniture/all/frn_all_bed_sm_s1.iff	3	2.299093	0.74	1.303034	0	0	1	0		$|
4505798	4505791	object/tangible/furniture/all/frn_all_bed_sm_s1.iff	3	3.814474	0.74	1.323542	0	0	1	0		$|
4505799	4505791	object/tangible/furniture/all/frn_all_bed_sm_s1.iff	3	5.232441	0.74	1.325495	0	0	1	0		$|
4505806	4505791	object/tangible/furniture/cheap/bookcase_s01.iff	3	1.116549	0.74	1.936967	0.7071072	0	0.7071063	0		$|
4505807	4505791	object/tangible/furniture/cheap/bookcase_s01.iff	3	1.118259	0.74	3.705703	0.7071097	0	0.7071033	0		$|
4505808	4505791	object/static/item/item_rifle.iff	3	1.181658	1.024605	1.466234	0.7144215	0	0	0		$|
4505809	4505791	object/static/item/item_pistol.iff	3	1.243658	1.941665	2.109528	0.7384685	0	0	0		$|
4505810	4505791	object/static/item/item_carbine_dh17.iff	3	1.225978	1.372455	1.90526	0.6931113	0	0	0		$|
4505811	4505791	object/static/item/item_rocket_launcher.iff	3	1.233056	1.056228	3.377497	-0.5026923	0	0.497293	0.5026923		$|
4505812	4505791	object/static/item/item_ammo_rocket.iff	3	1.164685	1.024605	3.829252	1	0	0	0		$|
4505813	4505791	object/static/item/item_ammo_rocket.iff	3	1.284498	1.024605	3.835812	1	0	0	0		$|
4505814	4505791	object/static/item/item_ammo_rocket.iff	3	1.110686	1.024605	3.82871	1	0	0	0		$|
4505815	4505791	object/static/item/item_ammo_rocket.iff	3	1.231123	1.024605	3.829285	1	0	0	0		$|
4505816	4505791	object/static/item/item_ammo_rocket.iff	3	1.152354	1.024605	4.054732	1	0	0	0		$|
4505817	4505791	object/static/item/item_ammo_rocket.iff	3	1.271983	1.024605	4.061568	1	0	0	0		$|
4505818	4505791	object/static/item/item_ammo_rocket.iff	3	1.098154	1.024605	4.054245	1	0	0	0		$|
4505819	4505791	object/static/item/item_ammo_rocket.iff	3	1.21876	1.024605	4.054732	1	0	0	0		$|
4505820	4505791	object/static/item/item_rifle.iff	3	1.13285	0.9297366	5.220109	-0.3200635	0	0	0.9473962		$|
4505821	4505791	object/static/item/item_pistol.iff	3	5.770922	0.74	5.948258	0.5637888	0	0.4284089	0.4330597		$|
4505856	4505791	object/static/item/item_sclpt_stuffed_bantha.iff	3	3.915628	1.214342	5.424747	0.6643326	0	0.1190599	-0.09355992		$|
4505873	4505791	object/static/item/item_tapestry_rebel.iff	3	6.757225	0.74	2.945081	1	0	0	0		$|
4505792	4505788	object/cell/cell.iff	4	0	0	0	1	5.61E-45	0	0		$|
4505823	4505792	object/tangible/furniture/cheap/bookcase_s01.iff	4	0.4016919	0.74	1.911821	0.707107	0	-0.7071065	0		$|
4505824	4505792	object/tangible/furniture/cheap/bookcase_s01.iff	4	0.3560699	0.74	4.254663	-0.7071069	0	0.707107	0		$|
4505825	4505792	object/static/item/item_vibroknuckles.iff	4	0.3660675	1.024605	2.571783	0.7350877	0	0	0		$|
4505826	4505792	object/static/item/item_vibroknuckles.iff	4	0.4000705	1.024605	2.357962	0.7000477	0	0.2068216	0.2242445		$|
4505827	4505792	object/static/item/item_vibroknuckles.iff	4	0.4212584	1.024605	2.2005	0.6937205	0	-0.2559552	-0.24301		$|
4505828	4505792	object/static/item/item_vibroknuckles.iff	4	0.4177001	1.024605	1.389771	0.6966054	0	0.2164828	0.2347196		$|
4505829	4505792	object/static/item/item_vibroknuckles.iff	4	0.4457764	1.024605	1.944931	0.5585622	0	-0.436635	-0.468437		$|
4505830	4505792	object/static/item/item_vibroknuckles.iff	4	0.462615	1.024605	1.65853	0.6977703	0	-0.2132677	-0.2312337		$|
4505831	4505792	object/static/item/item_wood_staff.iff	4	0.3133446	1.878418	2.949685	0.9933948	0	0	-0.1147467		$|
4505832	4505792	object/static/item/item_vibrolance.iff	4	0.1703166	1.530569	3.105906	0.9747941	0	0	0		$|
4505833	4505792	object/static/item/item_metal_staff.iff	4	0.224829	1.08785	3.141827	0.9921607	0	-0.003752437	-0.1246935		$|
4505834	4505792	object/static/item/item_vibroaxe.iff	4	0.1643523	1.65706	2.879595	0.9676633	0	0	0		$|
4505835	4505792	object/static/item/item_rifle.iff	4	0.425681	1.024605	4.266759	0.7109126	0	0	0		$|
4505836	4505792	object/static/item/item_rifle.iff	4	0.2813759	1.024605	3.696328	0.7144215	0	0	0		$|
4505837	4505792	object/static/item/item_pistol.iff	4	0.4322183	1.372455	4.29899	0.7213814	0	0	0		$|
4505838	4505792	object/static/item/item_pistol.iff	4	0.23122	1.372455	4.277076	0.7109116	0	0	0		$|
4505839	4505792	object/static/item/item_pistol.iff	4	0.4750001	1.372455	3.908279	0.710912	0	0	0		$|
4505840	4505792	object/static/item/item_pistol.iff	4	0.2900628	1.372455	3.926177	0.710912	0	0	0		$|
4505841	4505792	object/static/item/item_rocket_launcher.iff	4	0.2330856	2.574122	4.704014	-0.5003732	0	0.4995766	0.5049999		$|
4505842	4505792	object/static/item/item_rocket_launcher.iff	4	0.2835776	2.574122	3.904419	-0.500373	0	0.499577	0.505		$|
4505843	4505792	object/static/item/item_ammo_rocket.iff	4	0.2946739	1.941665	4.022188	1	0	0	0		$|
4505844	4505792	object/static/item/item_ammo_rocket.iff	4	0.4143029	1.941665	4.029024	1	0	0	0		$|
4505845	4505792	object/static/item/item_ammo_rocket.iff	4	0.2404749	1.941665	4.0217	1	0	0	0		$|
4505846	4505792	object/static/item/item_ammo_rocket.iff	4	0.3610799	1.941665	4.022188	1	0	0	0		$|
4505847	4505792	object/static/item/item_ammo_rocket.iff	4	0.2983544	1.941665	3.841519	1	0	0	0		$|
4505848	4505792	object/static/item/item_ammo_rocket.iff	4	0.4179834	1.941665	3.848355	1	0	0	0		$|
4505849	4505792	object/static/item/item_ammo_rocket.iff	4	0.2441555	1.941665	3.841031	1	0	0	0		$|
4505850	4505792	object/static/item/item_ammo_rocket.iff	4	0.3647604	1.941665	3.841519	1	0	0	0		$|
4505851	4505792	object/static/item/item_ammo_rocket.iff	4	0.2727404	1.941665	3.68078	1	0	0	0		$|
4505852	4505792	object/static/item/item_ammo_rocket.iff	4	0.3923694	1.941665	3.687616	1	0	0	0		$|
4505853	4505792	object/static/item/item_ammo_rocket.iff	4	0.2185415	1.941665	3.680292	1	0	0	0		$|
4505854	4505792	object/static/item/item_ammo_rocket.iff	4	0.3391464	1.941665	3.68078	1	0	0	0		$|
4505857	4505792	object/static/item/item_carbine_dh17.iff	4	0.3227211	1.340833	1.807428	0.7960837	0	0	0		$|
4505858	4505792	object/static/item/item_carbine_dh17.iff	4	0.5036988	1.372455	1.817424	0.7213838	0	0	0		$|
4505859	4505792	object/static/item/item_armor_chitin_helmet.iff	4	0.3121251	0.9929821	1.3362	0.7248358	0	-0.6889216	0		$|
4505860	4505792	object/static/item/item_armor_bone_helmet.iff	4	0.4516926	2.22627	0.2285109	-0.5637396	0	0.5490102	-0.4395391		$|
4505861	4505792	object/static/item/item_axe.iff	4	0.2689908	1.973288	1.714786	-0.3379331	0	0.6231228	0.6174134		$|
4505862	4505792	object/static/structure/tatooine/debris_tatt_crate_1.iff	4	-3.365999	0.74	5.907585	1	0	0	0		$|
4505863	4505792	object/static/structure/tatooine/debris_tatt_crate_metal_1.iff	4	-2.803234	0.74	5.204081	0.9026108	0	-0.4304577	0		$|
4505864	4505792	object/static/structure/tatooine/debris_tatt_drum_dented_1.iff	4	-3.491752	0.74	4.069203	1	0	0	0		$|
4505865	4505792	object/static/structure/tatooine/debris_tatt_drum_storage_1.iff	4	-0.415082	0.74	5.699287	1	0	0	0		$|
4505867	4505792	object/static/item/item_container_organic_structure.iff	4	-3.429544	0.74	-4.170086	1	0	0	0		$|
4505868	4505792	object/static/item/item_container_organic_hide.iff	4	-2.746096	0.74	-3.665696	1	0	0	0		$|
4505869	4505792	object/static/item/item_container_organic_food.iff	4	-3.661663	0.74	-3.342444	0.678557	0	0.7345477	0		$|
4505870	4505792	object/static/item/item_container_organic_food.iff	4	-3.431961	0.74	-3.017927	0.678557	0	0.7345477	0		$|
4505871	4505792	object/static/item/item_container_energy_gas.iff	4	-3.839981	0.74	-1.902416	0.7179101	0	-0.696136	0		$|
4505872	4505792	object/static/item/item_tapestry_rebel.iff	4	-4.101569	1.372455	1.815438	1	0	0	0		$|
4505875	0	object/static/structure/general/streetlamp_medium_style_01.iff	0	1607.71	95.9326	1732.69	0.707107	0	-0.707106	0		$|
4505876	0	object/static/structure/general/streetlamp_medium_style_01.iff	0	1639.8	96	1713.1	1	0	0	0		$|
4505877	0	object/static/structure/general/streetlamp_medium_style_01.iff	0	1593.39	96	1710.79	1	0	0	0		$|
4505878	0	object/static/structure/general/streetlamp_medium_style_01.iff	0	1637.24	95.9197	1740.71	0.707107	0	-0.707106	0		$|
4505884	0	object/static/structure/corellia/corl_tent_small.iff	0	1654.01	96	1753.25	0.998488	0	-0.0549723	0		$|
4505886	0	object/tangible/furniture/tatooine/frn_tato_fruit_stand_small_style_01.iff	0	1655.92	96	1757.59	0.707107	0	-0.707106	0		$|
4505887	0	object/tangible/furniture/tatooine/frn_tato_table_small_style_01.iff	0	1651.52	96	1755.62	1	0	0	0		$|
4505888	0	object/static/item/item_jar_berries.iff	0	1651.96	96.6009	1755.73	1	0	0	0		$|
4505889	0	object/static/item/item_jar_bugs.iff	0	1651.93	96.6009	1755.53	1	0	0	0		$|
4505890	0	object/static/item/item_jar_empty.iff	0	1651.75	96.6009	1755.63	1	0	0	0		$|
4505891	0	object/static/item/item_jar_funk.iff	0	1651.78	96.6009	1755.45	1	0	0	0		$|
4505892	0	object/static/item/item_jar_guts.iff	0	1651.74	96.6009	1755.82	1	0	0	0		$|
4505893	0	object/static/item/item_jar_spice_blue.iff	0	1651.37	96.6009	1756.08	1	0	0	0		$|
4505894	0	object/static/item/item_bottle_tall.iff	0	1651.61	96	1756.62	1	0	0	0		$|
4505895	0	object/static/item/item_bottle_fat.iff	0	1651.45	96	1756.36	1	0	0	0		$|
4505896	0	object/static/item/item_bottle_pear.iff	0	1651.3	96	1756.6	1	0	0	0		$|
4505897	0	object/static/item/item_basket_closed.iff	0	1655.99	96	1755.09	1	0	0	0		$|
4505898	0	object/static/structure/general/droid_r2_powerdown.iff	0	1653.71	96	1750.4	3.20E-08	0	1	0		$|
4505899	0	object/static/structure/general/droid_r4_powerdown.iff	0	1654.72	96	1750.36	3.20E-08	0	1	0		$|
4505902	0	object/static/item/item_container_energy_gas.iff	0	1651.86	96	1750.46	0.728272	0	-0.685288	0		$|
4505903	0	object/static/item/item_carbine_dh17.iff	0	1651.75	96.7989	1750.6	0.707388	0	0	0.706825		$|
4505904	0	object/static/item/item_rifle.iff	0	1651.88	96.7608	1750.08	0.724836	0	0	-0.688922		$|
4505906	0	object/static/structure/general/data_terminal_s1.iff	0	1628.75	102.986	1700.29	1	0	0	0		$|
4505918	0	object/static/structure/general/data_terminal_s1.iff	0	1593.54	102.991	1697.38	1	0	0	0		$|
4505920	0	object/static/item/item_rifle.iff	0	1601.6	104.838	1709.24	0.505475	0.494867	0.494683	0.504867		$|
4505921	0	object/static/item/item_rifle.iff	0	1601.6	103.326	1709.25	0.510397	0.499892	0.489603	0.499892		$|
4505922	0	object/tangible/furniture/cheap/bookcase_s01.iff	0	1602.17	103.025	1709.29	-1.08E-06	0	1	0		$|
4505923	0	object/static/structure/tatooine/debris_tatt_crate_1.iff	0	1592.48	103.049	1708.96	1	0	0	0		$|
4505924	0	object/static/structure/tatooine/debris_tatt_crate_metal_1.iff	0	1593.43	103.049	1708.85	1	0	0	0		$|
4505925	0	object/static/item/item_rifle.iff	0	1603.62	103.94	1698.29	-0.281289	0.648977	0.651259	-0.274896		$|
4505926	0	object/static/item/item_pistol.iff	0	1639.93	103.933	1704.64	0.724836	0	0	0.688921		$|
4505927	0	object/static/item/item_rifle.iff	0	1639.52	103.074	1703.99	0.613738	-0.00306866	0.00394743	0.789494		$|
4505928	0	object/static/item/item_carbine_dh17.iff	0	1639.92	103.954	1703.94	-0.703845	0	0	0.710353		$|
4505967	0	object/building/military/military_base_shed_rebel_style_01.iff	0	1666.61	96	1753.44	0.707107	0	0.707107	0		$|
4505968	4505967	object/cell/cell.iff	1	0	0	0	1	1.40E-45	0	0		$|
4505969	4505967	object/cell/cell.iff	2	0	0	0	1	2.80E-45	0	0		$|
4505970	4505967	object/cell/cell.iff	3	0	0	0	1	4.20E-45	0	0		$|
4505971	4505967	object/cell/cell.iff	4	0	0	0	1	5.61E-45	0	0		$|
4505972	4505967	object/cell/cell.iff	5	0	0	0	1	7.01E-45	0	0		$|
4505973	4505967	object/cell/cell.iff	6	0	0	0	1	8.41E-45	0	0		$|
4505991	0	object/building/military/military_outpost_guard_house_rebel.iff	0	1582.38	96	1754.74	0.707107	0	0.707107	0		$|
4505992	4505991	object/cell/cell.iff	1	0	0	0	1	1.40E-45	0	0		$|
4505993	4505991	object/cell/cell.iff	2	0	0	0	1	2.80E-45	0	0		$|
4506085	4505993	object/static/item/item_tapestry_rebel.iff	2	-2.907844	1.219477	5.596252	1	0	0	0		$|
4506006	0	object/tangible/camp/camp_cot_s3.iff	0	1638.45	103.004	1712.04	1	0	0	0		$|
4506008	0	object/tangible/camp/camp_cot_s3.iff	0	1628.48	103.014	1701.18	1	0	0	0		$|
4506009	0	object/tangible/camp/camp_cot_s3.iff	0	1592.55	103.025	1699.57	0.707107	0	0.707107	0		$|
4506012	0	object/tangible/furniture/cheap/chest_s01.iff	0	1627.68	103.017	1702.33	0.707107	0	0.707107	0		$|
4506015	0	object/tangible/furniture/all/frn_all_lamp_desk_s02.iff	0	1628.11	104.006	1702.7	1	0	0	0		$|
4506016	0	object/static/item/item_bacta_ampules.iff	0	1628	103.986	1702.13	-0.703529	0.710034	-0.017691	0.0242231		$|
4506017	0	object/static/item/item_bacta_ampules.iff	0	1627.88	103.986	1702.19	-0.703529	0.710034	-0.017691	0.0242231		$|
4506019	0	object/static/item/item_document.iff	0	1627.49	103.955	1702.36	1	0	0	0		$|
4506020	0	object/static/item/item_jar_berries.iff	0	1627.62	103.006	1703.02	1	0	0	0		$|
4506021	0	object/static/item/item_medic_bacta_tank_advanced.iff	0	1653.06	96	1723.34	3.20E-08	0	1	0		$|
4506022	0	object/static/item/item_medic_bacta_tank_advanced.iff	0	1653.8	96	1723.35	3.20E-08	0	1	0		$|
4506023	0	object/static/item/item_medic_bacta_tank_advanced.iff	0	1654.53	96	1723.34	3.20E-08	0	1	0		$|
4506024	0	object/static/item/item_container_energy_radioactive.iff	0	1655.61	96	1713.12	1	0	0	0		$|
4506025	0	object/static/item/item_container_energy_liquid.iff	0	1654.34	96	1712.97	1	0	0	0		$|
4506026	0	object/static/item/item_container_energy_liquid.iff	0	1654.05	96	1712.77	1	0	0	0		$|
4506027	0	object/static/item/item_container_energy_liquid.iff	0	1653.95	96	1713.11	1	0	0	0		$|
4506028	0	object/static/item/item_container_inorganic_minerals.iff	0	1655.95	96	1715.15	1	0	0	0		$|
4506029	0	object/static/item/item_container_organic_hide.iff	0	1654.53	96	1714.16	0.935897	0	0.352274	0		$|
4506030	0	object/static/structure/corellia/corl_tent_small.iff	0	1594.86	96	1753.15	1	0	0	0		$|
4506031	0	object/static/item/item_painting_tatooine_style_02.iff	0	1595.81	95.1262	1751.17	0.682423	-0.185198	0.682423	-0.185198		$|
4506032	0	object/static/item/item_painting_naboo_style_01.iff	0	1594.01	94.7039	1750.78	0.693706	-0.137014	0.693705	-0.137014		$|
4506033	0	object/tangible/furniture/all/frn_all_rug_rectangle_large_style_01.iff	0	1597.83	95.9684	1753.06	1	0	0	0		$|
4506035	0	object/tangible/furniture/all/frn_all_decorative_lg_s1.iff	0	1592.36	96	1754.02	0.663731	0	0.747971	0		$|
4506036	0	object/tangible/furniture/all/frn_all_decorative_lg_s2.iff	0	1593.24	96	1751.53	-0.305817	0	0.95209	0		$|
4506037	0	object/tangible/furniture/all/frn_all_decorative_sm_s1.iff	0	1594.71	96	1750.98	1	0	0	0		$|
4506038	0	object/tangible/furniture/elegant/chair_s01.iff	0	1592.44	96	1752.73	0.810963	0	0.585097	0		$|
4506040	0	object/tangible/furniture/elegant/end_table_s01.iff	0	1593.89	96	1755.1	1	0	0	0		$|
4506041	0	object/static/structure/tatooine/palette_tatooine_style_01.iff	0	1617.24	96	1790.37	1	0	0	0		$|
4506042	0	object/static/structure/tatooine/palette_tatooine_style_01.iff	0	1617.18	96.8759	1790.39	1	0	0	0		$|
4506043	0	object/static/structure/tatooine/debris_tatt_crate_1.iff	0	1616.51	96.2091	1791.09	1	0	0	0		$|
4506044	0	object/static/structure/tatooine/debris_tatt_crate_1.iff	0	1616.55	96.2322	1789.93	1	0	0	0		$|
4506045	0	object/static/structure/tatooine/debris_tatt_crate_1.iff	0	1617.4	96.1704	1791.1	1	0	0	0		$|
4506046	0	object/static/structure/tatooine/debris_tatt_crate_1.iff	0	1617.43	96.1935	1789.94	1	0	0	0		$|
4506049	0	object/static/structure/tatooine/debris_tatt_crate_metal_1.iff	0	1615.92	96	1788.78	0.981048	0	0.193767	0		$|
4506050	0	object/static/structure/tatooine/debris_tatt_drum_storage_2.iff	0	1617.49	96	1788.37	0.973666	0	-0.227978	0		$|
4506051	0	object/static/structure/tatooine/debris_tatt_drum_dented_1.iff	0	1655	96	1791.21	1	0	0	0		$|
4506052	0	object/static/structure/tatooine/debris_tatt_drum_storage_1.iff	0	1653.58	96	1790.92	1	0	0	0		$|
4506053	0	object/static/structure/tatooine/debris_tatt_crate_metal_1.iff	0	1654.16	96	1789.68	1	0	0	0		$|
4506060	0	object/static/structure/tatooine/debris_tatt_crate_1.iff	0	1609.5	96	1710.87	1	0	0	0		$|
4506061	0	object/static/structure/tatooine/debris_tatt_crate_metal_1.iff	0	1609.71	96	1711.65	0.979061	0	0.203567	0		$|
4506077	0	object/tangible/terminal/terminal_mission_rebel.iff	0	1626.15	96	1712.37	1	0	0	0		$|
4506080	0	object/tangible/camp/camp_cot_s3.iff	0	1586.7	103.042	1748.9	1	0	0	0		$|
4506081	0	object/tangible/furniture/cheap/chest_s01.iff	0	1584.83	103.022	1748.59	1	0	0	0		$|
4506082	0	object/static/item/item_carbine_dh17.iff	0	1577.1	103.06	1760.06	0.641509	-0.298101	-0.297864	0.640999		$|
4506083	0	object/static/item/item_carbine_dh17.iff	0	1576.76	103.06	1760.1	0.707387	0	0	0.706826		$|
4506084	0	object/static/item/item_carbine_dh17.iff	0	1577.47	103.977	1760.87	0.700285	0	0	0.713864		$|
4505566	0	object/static/item/item_armor_bone_helmet.iff	0	1627.08	95.2094	1761.15	0.707387	0	0.706826	0		$|
739509950	0	object/tangible/planet_map_location/city.iff	0	1633	100	1749	1	0	0	0		$|
