AdminAccounts	AdminLevel	AdminSkill	AdminComment	AdminComment2	AdminIpBlocks	AdminIpComment
s	i{0}	s	c	c	s	c
omegagm	50	admin				
omegaqa	50	admin				
dev-aadi	50	admin				
dev-daslo	50	admin				
dev-jarek	50	admin				
dev-karthoris	50	admin				
dev-wildcard	50	admin				
qa-tyrone	50	admin				
qa-neliev	50	admin				
qa-elasez	50	admin				
qa-intern1	20	admin				
csr-armara	20	admin				
csr-jodea	20	admin				
dev-dark	50	admin				
dev-reign	50	admin				
dev-cable	50	admin				
dev-intern	20	admin				
csr-intern	20	admin				
csr-kar	20	admin				
dev-dnc	50	admin				
csr-nowa	50	admin				
csr-ash	20	admin				
csr-vallik	20	admin				
