spawns	name	room	loc_x	loc_y	loc_z	yaw	script	mood	animation_mood	respawn_time	spawn_objvar	special_room	special_room_script	room_objvar	room_objvar_name	room_objvar_value	radius	planet_level
s	s	s	f	f	f	f	s	s	s	i	s	s	s	s	s	s	f	i[0]
stormtrooper		room1	4.287957191	0.125266001	2.104326963		theme_park.dungeon.generic_spawner			412	int:ai.defaultCalmBehavior=2							1
stormtrooper		room2	3.013297081	0.125266001	-3.916663885		theme_park.dungeon.generic_spawner			403	int:ai.defaultCalmBehavior=2							1
