spawns	name	room	loc_x	loc_y	loc_z	yaw	script	mood	animation_mood	respawn_time	spawn_objvar	special_room	special_room_script	room_objvar	room_objvar_name	room_objvar_value
s	s	s	f	f	f	f	s	s	s	i	s	s	s	s	s	s
scientist_human_male		rooma	-18.6	0.3	-9.8	-179	conversation.c_story1_1_doc			10	int:ai.defaultCalmBehavior=1					
