spawns	name	room	loc_x	loc_y	loc_z	yaw	script	mood	animation_mood	respawn_time	spawn_objvar	special_room	special_room_script	room_objvar	room_objvar_name	room_objvar_value	radius	planet_level
s	s	s	f	f	f	f	s	s	s	i	s	s	s	s	s	s	f	i[0]
rebel_corporal		foyer	3.734163284	0.50999999	-2.960744858		theme_park.dungeon.generic_death			345	int:ai.defaultCalmBehavior=1							1
rebel_trooper		staircase	4.003347874	0.50999999	3.598586082		theme_park.dungeon.generic_death			312	int:ai.defaultCalmBehavior=1							1
rebel_staff_sergeant		staircase	-1.811635971	2.010057926	3.63956809		theme_park.dungeon.generic_death			345	int:ai.defaultCalmBehavior=1							1
