spawns	name	room	loc_x	loc_y	loc_z	yaw	script	mood	animation_mood	respawn_time	spawn_objvar	special_room	special_room_script	room_objvar	room_objvar_name	room_objvar_value
s	s	s	f	f	f	f	s	s	s	i	s	s	s	s	s	s
clone_relics_qakkee		cantina	3	-0.9	5.7	176			npc_standing_drinking	10						
bounty_guild_bounty_check_rep		cantina	4.2	-0.9	-4.8	-5			npc_standing_drinking	10						
object/tangible/ground_spawning/area_spawner.iff	Smuggler Spawner	alcove4	3.1	-0.9	22.6	-179	city.bestine.politician_event_spawner			10	"string:spawns=victor_questn_cantina,string:quest_script=conversation.victor_questn_cantina"					
imperial_officer_questgiver		cantina	7	-0.9	-4.5	0	conversation.c_story1_1_imp_quest			10						
