objid	container	server_template_crc	cell_index	px	py	pz	qw	qx	qy	qz	scripts	objvars
i	i	h	i	f	f	f	f	f	f	f	s	p
367428	0	object/tangible/hq_destructible/security_terminal.iff	0	618.49	24.6205	385.68	0.382683	0	0.92388	0		$|
2715878	0	object/building/military/military_base_shed_imperial_style_officer_s01.iff	0	519	25	332	0.92388	0	0.382682	0	theme_park.dungeon.generic_spawner	spawn_table|4|datatables/spawning/poi_spawner/corellia/imperial_stronghold_shed_1.iff|$|
2715879	2715878	object/cell/cell.iff	1	0	0	0	1	1.40E-45	0	0		$|
2715880	2715878	object/cell/cell.iff	2	0	0	0	1	2.80E-45	0	0		$|
2715881	2715878	object/cell/cell.iff	3	0	0	0	1	4.20E-45	0	0		$|
2715882	2715878	object/cell/cell.iff	4	0	0	0	1	5.61E-45	0	0		$|
2715883	2715878	object/cell/cell.iff	5	0	0	0	1	7.01E-45	0	0		$|
2715884	2715878	object/cell/cell.iff	6	0	0	0	1	8.41E-45	0	0		$|
367432	2715884	object/tangible/hq_destructible/power_regulator.iff	6	-5.501849	0.125266	-4.543806	0.7071079	0	0.7071056	0		$|
1109935	2715884	object/tangible/collection/scout_trooper_boots.iff	6	-2.545596	0.1232719	-0.2478217	0.104015	0	0.9945758	0		$|
2715899	0	object/building/military/military_base_shed_imperial_style_officer_s01.iff	0	520	25	388	0.382686	0	0.923878	0	theme_park.dungeon.generic_spawner	spawn_table|4|datatables/spawning/poi_spawner/corellia/imperial_stronghold_shed_2.iff|$|
2715900	2715899	object/cell/cell.iff	1	0	0	0	1	1.40E-45	0	0		$|
2715901	2715899	object/cell/cell.iff	2	0	0	0	1	2.80E-45	0	0		$|
2715902	2715899	object/cell/cell.iff	3	0	0	0	1	4.20E-45	0	0		$|
2715903	2715899	object/cell/cell.iff	4	0	0	0	1	5.61E-45	0	0		$|
2715904	2715899	object/cell/cell.iff	5	0	0	0	1	7.01E-45	0	0		$|
367429	2715904	object/tangible/terminal/terminal_hq.iff	5	4.014464	0.125266	-1.56995	-3.20E-08	0	1	0		$|
2715905	2715899	object/cell/cell.iff	6	0	0	0	1	8.41E-45	0	0		$|
2715906	0	object/building/military/military_base_shed_imperial_barracks_s01.iff	0	591	25	413	-0.382682	0	0.92388	0	theme_park.dungeon.generic_spawner	spawn_table|4|datatables/spawning/poi_spawner/corellia/imperial_stronghold_shed_3.iff|$|
2715907	2715906	object/cell/cell.iff	1	0	0	0	1	1.40E-45	0	0		$|
2715908	2715906	object/cell/cell.iff	2	0	0	0	1	2.80E-45	0	0		$|
2715909	2715906	object/cell/cell.iff	3	0	0	0	1	4.20E-45	0	0		$|
2715910	2715906	object/cell/cell.iff	4	0	0	0	1	5.61E-45	0	0		$|
2715911	2715906	object/cell/cell.iff	5	0	0	0	1	7.01E-45	0	0		$|
2715912	2715906	object/cell/cell.iff	6	0	0	0	1	8.41E-45	0	0		$|
2715913	0	object/building/military/military_base_shed_imperial_barracks_s01.iff	0	591	25	307	0.923877	0	-0.382689	0	theme_park.dungeon.generic_spawner	spawn_table|4|datatables/spawning/poi_spawner/corellia/imperial_stronghold_shed_4.iff|$|
2715914	2715913	object/cell/cell.iff	1	0	0	0	1	1.40E-45	0	0		$|
2715915	2715913	object/cell/cell.iff	2	0	0	0	1	2.80E-45	0	0		$|
2715916	2715913	object/cell/cell.iff	3	0	0	0	1	4.20E-45	0	0		$|
2715917	2715913	object/cell/cell.iff	4	0	0	0	1	5.61E-45	0	0		$|
2715918	2715913	object/cell/cell.iff	5	0	0	0	1	7.01E-45	0	0		$|
2715919	2715913	object/cell/cell.iff	6	0	0	0	1	8.41E-45	0	0		$|
2715920	0	object/static/structure/military/military_wall_med_imperial_32_style_01.iff	0	514	24.5	325	-0.382683	0	0.92388	0		$|
2715921	0	object/static/structure/military/military_wall_med_imperial_32_style_01.iff	0	514	24.5	395	0.92388	0	-0.382683	0		$|
2715922	0	object/static/structure/military/military_wall_med_imperial_32_style_01.iff	0	503	24.5	360	0.707107	0	-0.707106	0		$|
2715926	0	object/static/structure/military/military_wall_med_imperial_style_01.iff	0	503	24.5	380	0.707107	0	-0.707106	0		$|
2715927	0	object/static/structure/military/military_wall_med_imperial_style_01.iff	0	503	24.5	340	-0.707107	0	0.707107	0		$|
2715928	0	object/static/structure/military/military_wall_med_imperial_32_style_01.iff	0	536	24.5	303	-0.382683	0	0.92388	0		$|
2715929	0	object/static/structure/military/military_wall_med_imperial_32_style_01.iff	0	536	24.5	417	0.92388	0	-0.382683	0		$|
2715930	0	object/static/structure/military/military_wall_med_imperial_32_style_01.iff	0	600	24.5	417	0.92388	0	0.382683	0		$|
2715931	0	object/static/structure/military/military_wall_med_imperial_32_style_01.iff	0	622	24.5	395	0.92388	0	0.382683	0		$|
2715932	0	object/static/structure/military/military_wall_med_imperial_32_style_01.iff	0	633	24.5	360	0.707107	0	0.707107	0		$|
2715933	0	object/static/structure/military/military_wall_med_imperial_style_01.iff	0	633	24.5	340	0.707107	0	0.707107	0		$|
2715934	0	object/static/structure/military/military_wall_med_imperial_style_01.iff	0	633	24.5	380	0.707107	0	0.707107	0		$|
2715935	0	object/static/structure/military/military_wall_med_imperial_32_style_01.iff	0	622	24.5	325	0.382683	0	0.92388	0		$|
2715936	0	object/static/structure/military/military_wall_med_imperial_32_style_01.iff	0	600	24.5	303	0.382683	0	0.92388	0		$|
2715937	0	object/static/structure/military/military_column_med_imperial_style_01.iff	0	547	25	292	1	0	0	0		$|
2715938	0	object/static/structure/military/military_column_med_imperial_style_01.iff	0	589	25	292	1	0	0	0		$|
2715941	0	object/static/structure/military/military_column_med_imperial_style_01.iff	0	503	25	336	1	0	0	0		$|
2715942	0	object/static/structure/military/military_column_med_imperial_style_01.iff	0	503	25	384	1	0	0	0		$|
2715944	0	object/static/structure/military/military_column_med_imperial_style_01.iff	0	547	25	428	1	0	0	0		$|
2715945	0	object/static/structure/military/military_column_med_imperial_style_01.iff	0	633	25	336	1	0	0	0		$|
2715946	0	object/static/structure/military/military_column_med_imperial_style_01.iff	0	633	25	384	1	0	0	0		$|
2715948	0	object/static/structure/military/military_column_med_imperial_style_01.iff	0	589	25	428	1	0	0	0		$|
2715949	0	object/building/military/military_base_shed_imperial_barracks_s01.iff	0	602	25	402	-0.382682	0	0.92388	0	theme_park.dungeon.generic_spawner	spawn_table|4|datatables/spawning/poi_spawner/corellia/imperial_stronghold_shed_5.iff|$|
2715950	2715949	object/cell/cell.iff	1	0	0	0	1	1.40E-45	0	0		$|
2715951	2715949	object/cell/cell.iff	2	0	0	0	1	2.80E-45	0	0		$|
2715952	2715949	object/cell/cell.iff	3	0	0	0	1	4.20E-45	0	0		$|
367406	2715952	object/tangible/hq_destructible/uplink_terminal.iff	3	1.073917	0.125265	-5.929469	1	0	0	0		$|
2715953	2715949	object/cell/cell.iff	4	0	0	0	1	5.61E-45	0	0		$|
2715954	2715949	object/cell/cell.iff	5	0	0	0	1	7.01E-45	0	0		$|
2715955	2715949	object/cell/cell.iff	6	0	0	0	1	8.41E-45	0	0		$|
2715956	0	object/building/military/military_base_shed_imperial_barracks_s01.iff	0	602	25	318	0.923877	0	-0.38269	0	theme_park.dungeon.generic_spawner	spawn_table|4|datatables/spawning/poi_spawner/corellia/imperial_stronghold_shed_6.iff|$|
2715957	2715956	object/cell/cell.iff	1	0	0	0	1	1.40E-45	0	0		$|
2715958	2715956	object/cell/cell.iff	2	0	0	0	1	2.80E-45	0	0		$|
2715959	2715956	object/cell/cell.iff	3	0	0	0	1	4.20E-45	0	0		$|
2715960	2715956	object/cell/cell.iff	4	0	0	0	1	5.61E-45	0	0		$|
2715961	2715956	object/cell/cell.iff	5	0	0	0	1	7.01E-45	0	0		$|
2715962	2715956	object/cell/cell.iff	6	0	0	0	1	8.41E-45	0	0		$|
2715963	0	object/static/structure/corellia/corl_power_bubble_node.iff	0	588	25	424	0.92388	0	0.382683	0		$|
2715971	0	object/static/structure/corellia/corl_power_bubble_node.iff	0	624	25	387	0.92388	0	0.382683	0		$|
2715972	0	object/static/structure/corellia/corl_power_bubble_node.iff	0	624	25	332	0.92388	0	0.382683	0		$|
2715973	0	object/static/structure/corellia/corl_power_bubble_node.iff	0	509	25	384	0.382683	0	0.92388	0		$|
2715974	0	object/static/structure/corellia/corl_power_bubble_node.iff	0	508	25	336	0.382683	0	0.92388	0		$|
2715975	0	object/static/structure/corellia/corl_power_bubble_node.iff	0	587	25	297	-0.382683	0	0.92388	0		$|
2715976	0	object/building/military/military_outpost_guard_tower_1.iff	0	618	25	307	-0.382683	0	0.92388	0		$|
2715977	0	object/building/military/military_outpost_guard_tower_1.iff	0	518	25	307	0.923879	0	-0.382684	0		$|
2715978	0	object/building/military/military_outpost_guard_tower_1.iff	0	518	25	413	0.92388	0	0.382683	0		$|
2715979	0	object/building/military/military_outpost_guard_tower_1.iff	0	618	25	413	0.382684	0	0.923879	0		$|
2715980	0	object/static/vehicle/static_lambda_shuttle.iff	0	518	25	360	0.707107	0	0.707106	0		$|
2715981	0	object/static/structure/corellia/corl_power_bubble_node.iff	0	513	25	380	0.382683	0	0.92388	0		$|
2715982	0	object/static/structure/corellia/corl_power_bubble_node.iff	0	512	25	340	0.382683	0	0.92388	0		$|
2715983	0	object/static/structure/corellia/corl_power_arial_thin.iff	0	589	25	292	1	0	0	0		$|
2715984	0	object/static/structure/corellia/corl_power_arial_thin.iff	0	547	25	292	1	0	0	0		$|
2715985	0	object/static/structure/corellia/corl_power_arial_thin.iff	0	547	25	428	1	0	0	0		$|
2715986	0	object/static/structure/corellia/corl_power_arial_thin.iff	0	589	25	428	1	0	0	0		$|
2715988	0	object/static/structure/military/military_column_med_imperial_style_01.iff	0	536	22	336	1	0	0	0		$|
2715989	0	object/static/structure/military/military_column_med_imperial_style_01.iff	0	536	22	384	1	0	0	0		$|
2715991	0	object/static/structure/general/streetlamp_small_red_style_01.iff	0	536	26.4369	384	1	0	0	0		$|
2715992	0	object/static/structure/general/streetlamp_small_red_style_01.iff	0	536	26.4369	336	1	0	0	0		$|
2716000	0	object/static/structure/general/streetlamp_large_style_01.iff	0	587	25	428	0.707107	0	-0.707106	0		$|
2716001	0	object/static/structure/general/streetlamp_large_style_01.iff	0	549	25	428	0.707107	0	0.707106	0		$|
2716002	0	object/static/structure/general/streetlamp_large_style_01.iff	0	587	25	292	-0.707107	0	0.707107	0		$|
2716003	0	object/static/structure/general/streetlamp_large_style_01.iff	0	549	25	292	0.707107	0	0.707106	0		$|
2716004	0	object/static/structure/general/streetlamp_large_style_01.iff	0	529	25	333	0.92388	0	0.382683	0		$|
2716005	0	object/static/structure/general/streetlamp_large_style_01.iff	0	530	25	387	0.382683	0	0.92388	0		$|
2716006	0	object/static/structure/general/streetlamp_large_style_01.iff	0	591	25	402	-0.382683	0	0.92388	0		$|
2716007	0	object/static/structure/general/streetlamp_large_style_01.iff	0	602	25	391	-0.382683	0	0.92388	0		$|
2716009	0	object/static/structure/general/streetlamp_large_style_01.iff	0	602	25	329	0.92388	0	-0.382683	0		$|
2716010	0	object/static/structure/general/streetlamp_large_style_01.iff	0	591	25	318	0.92388	0	-0.382683	0		$|
2716012	0	object/static/vehicle/static_tie_bomber.iff	0	613	27.512	359	0.707107	0	-0.707106	0		$|
2716014	0	object/static/structure/general/landing_pad_shuttle.iff	0	550	25	403	0.382683	0	0.92388	0		$|
2716015	0	object/static/vehicle/static_tie_fighter.iff	0	551.135	30.5764	401.82	0.382683	0	0.92388	0		$|
2716016	0	object/static/structure/corellia/corl_power_connector.iff	0	548.695	29.5	404.251	1.22E-08	0.382684	2.96E-08	0.923879		$|
2716017	0	object/building/military/military_outpost_guard_tower_1.iff	0	544	25	409	-0.382684	0	0.923879	0		$|
2716018	0	object/static/structure/general/landing_pad_shuttle.iff	0	614.313	25	359.032	0.707107	0	-0.707106	0		$|
2716019	0	object/building/military/military_outpost_guard_tower_1.iff	0	622	25	359	1	0	0	0		$|
2716020	0	object/static/structure/corellia/corl_power_connector.iff	0	617.084	29.4215	357.207	0	7.27E-07	0	1		$|
2716021	0	object/static/structure/corellia/corl_power_connector.iff	0	617.115	29.5095	360.719	0	7.27E-07	0	1		$|
2716022	0	object/building/military/military_outpost_guard_tower_1.iff	0	545	25	310	0.382682	0	0.92388	0		$|
2716023	0	object/static/structure/general/landing_pad_shuttle.iff	0	550.383	25	315.282	0.923879	0	0.382684	0		$|
2716024	0	object/static/vehicle/static_tie_fighter.iff	0	551.827	30.531	316.837	0.923879	0	0.382684	0		$|
2716025	0	object/static/structure/corellia/corl_power_connector.iff	0	549.378	29.5	314.391	0	-0.382683	0	0.92388		$|
2716026	0	object/static/structure/general/streetlamp_small_red_style_01.iff	0	551.835	25	316.893	0.92388	0	-0.382683	0		$|
2716027	0	object/static/structure/general/streetlamp_small_red_style_01.iff	0	551.148	25	401.845	0.92388	0	-0.382683	0		$|
2716028	0	object/static/structure/general/streetlamp_small_red_style_01.iff	0	611.661	25	358.978	1	0	0	0		$|
2716029	0	object/building/military/military_base_shed_imperial_barracks_s01.iff	0	613	25	329	0.923877	0	-0.38269	0	theme_park.dungeon.generic_spawner	spawn_table|4|datatables/spawning/poi_spawner/corellia/imperial_stronghold_shed_7.iff|$|
2716030	2716029	object/cell/cell.iff	1	0	0	0	1	1.40E-45	0	0		$|
2716031	2716029	object/cell/cell.iff	2	0	0	0	1	2.80E-45	0	0		$|
2716032	2716029	object/cell/cell.iff	3	0	0	0	1	4.20E-45	0	0		$|
2716033	2716029	object/cell/cell.iff	4	0	0	0	1	5.61E-45	0	0		$|
2716034	2716029	object/cell/cell.iff	5	0	0	0	1	7.01E-45	0	0		$|
2716035	2716029	object/cell/cell.iff	6	0	0	0	1	8.41E-45	0	0		$|
367410	2716035	object/tangible/hq_destructible/override_terminal.iff	6	-3.040248	0.125266	-0.4934856	-3.20E-08	0	1	0		$|
2716036	0	object/building/military/military_base_shed_imperial_barracks_s01.iff	0	613	25	391	-0.382682	0	0.92388	0	theme_park.dungeon.generic_spawner	spawn_table|4|datatables/spawning/poi_spawner/corellia/imperial_stronghold_shed_8.iff|$|
2716037	2716036	object/cell/cell.iff	1	0	0	0	1	1.40E-45	0	0		$|
2716038	2716036	object/cell/cell.iff	2	0	0	0	1	2.80E-45	0	0		$|
2716039	2716036	object/cell/cell.iff	3	0	0	0	1	4.20E-45	0	0		$|
2716040	2716036	object/cell/cell.iff	4	0	0	0	1	5.61E-45	0	0		$|
2716041	2716036	object/cell/cell.iff	5	0	0	0	1	7.01E-45	0	0		$|
2716042	2716036	object/cell/cell.iff	6	0	0	0	1	8.41E-45	0	0		$|
2716043	0	object/static/structure/military/military_column_med_imperial_style_01.iff	0	611	25	406	1	0	0	0		$|
2716044	0	object/static/structure/military/military_column_med_imperial_style_01.iff	0	525	25	406	1	0	0	0		$|
2716045	0	object/static/structure/military/military_column_med_imperial_style_01.iff	0	611	25	314	1	0	0	0		$|
2716046	0	object/static/structure/military/military_column_med_imperial_style_01.iff	0	525	25	314	1	0	0	0		$|
2716047	0	object/static/structure/general/tankfarm_s01.iff	0	534	25	411	0.382683	0	0.92388	0		$|
2716048	0	object/static/structure/general/tankfarm_s01.iff	0	541	25	418	0.382683	0	0.92388	0		$|
2716049	0	object/static/structure/general/tankfarm_s01.iff	0	536	25	307	0.923879	0	0.382684	0		$|
2716050	0	object/static/structure/general/tankfarm_s01.iff	0	543	25	300	0.923879	0	0.382684	0		$|
2716051	0	object/static/structure/general/tankfarm_s01.iff	0	630	25	366	-0.707107	0	0.707107	0		$|
2716052	0	object/static/structure/general/tankfarm_s01.iff	0	630	25	376	-0.707107	0	0.707107	0		$|
2716053	0	object/static/structure/general/tankfarm_s01.iff	0	630	25	353	-0.707107	0	0.707107	0		$|
2716054	0	object/static/structure/general/tankfarm_s01.iff	0	630	25	343	-0.707107	0	0.707107	0		$|
2716055	0	object/tangible/furniture/all/frn_all_toolchest_lg_s01.iff	0	610	25	362	-0.19945	0	0.979908	0		$|
2716056	0	object/tangible/furniture/all/frn_all_toolchest_med_s01.iff	0	614	25	357	0.745175	0	-0.666869	0		$|
2716057	0	object/static/structure/general/poi_powerdroid_powerdown.iff	0	615	25	358	0.789992	0	-0.613117	0		$|
2716058	0	object/static/structure/general/prp_engine.iff	0	613.944	26.0225	356.905	-0.609791	0	0.792563	0		$|
2716059	0	object/static/structure/general/prp_engine_component.iff	0	547.995	26.7392	402.352	0.659983	0	0.75128	0		$|
2716060	0	object/static/structure/general/prp_engine_component.iff	0	547.97	26.7392	402.62	0.731689	0	0.681639	0		$|
2716061	0	object/tangible/furniture/all/frn_all_toolchest_lg_s01.iff	0	548.08	25	402.271	0.659983	0	0.75128	0		$|
2716062	0	object/static/item/item_tool_instrument_calibrator.iff	0	548.102	26.676	401.932	0.165038	0	0.986287	0		$|
2716063	0	object/static/structure/general/poi_powerdroid_powerdown.iff	0	549.403	25	403.117	0.0791209	0	0.996865	0		$|
2716064	0	object/tangible/furniture/all/frn_all_toolchest_med_s01.iff	0	549.028	25	315.95	0.904753	0	0.425937	0		$|
2716065	0	object/static/structure/general/poi_powerdroid_powerdown.iff	0	549.049	25	314.535	0.872745	0	0.488177	0		$|
2716066	0	object/static/structure/general/prp_engine.iff	0	548.996	26.0119	316.055	0.967663	0	0.252245	0		$|
7345554	0	object/tangible/jedi/force_shrine_stone.iff	0	1996.92	342.029	562.61	0.707107	0	0.707107	0		$|
7345555	0	object/static/structure/dantooine/dant_jedi_temple_pillar_sm.iff	0	1992.5	342.706	561.013	0.707113	0	0.7071	0		$|
7345556	0	object/static/structure/dantooine/dant_jedi_temple_pillar_sm.iff	0	2001.18	342.707	561.047	1	0	0	0		$|
7345557	0	object/static/structure/dantooine/dant_jedi_temple_pillar_base.iff	0	1995.95	342.701	561.002	0	0	1	0		$|
7345558	0	object/static/structure/dantooine/dant_jedi_temple_pillar_base.iff	0	1997.74	342.688	560.954	1	0	0	0		$|
7345559	0	object/static/structure/dantooine/dant_jedi_temple_altar.iff	0	1996.86	324.749	561.013	1	0	0	0		$|
7345560	0	object/static/particle/pt_poi_electricity_2x2.iff	0	1996.92	342.697	562.607	1	0	0	0		$|
9825556	0	object/static/corellia/rock_crystal_geyser_agrilat_small.iff	0	14.5566	350.001	1831.15	1	0	0	0		$|
