spawns	name	room	loc_x	loc_y	loc_z	yaw	script	mood	animation_mood	respawn_time	spawn_objvar	special_room	special_room_script	room_objvar	room_objvar_name	room_objvar_value
s	s	s	f	f	f	f	s	s	s	i	s	s	s	s	s	s
fbase_rebel_command_security_guard		mainchamber	4.7	6.1	-4.5	-89	"theme_park.dungeon.generic_death,conversation.c_story1_4_reb_guard"			1		foyerdown	theme_park.gating.syren4.reb_safehouse			
