disabled_quests
s
cantHaveAnEmptyDatatable
tatooine_eisley_bone_gnasher_ON
tatooine_eisley_krayt_cult_ON
tatooine_eisley_epidemic_ON
tatooine_eisley_digital_infection_ON
tatooine_eisley_nikos_coins_ON
tatooine_eisley_tdc_ON
tatooine_eisley_heirloom_ON
tatooine_eisley_spice_of_death_ON
tatooine_eisley_special_delivery_ON
tatooine_bestinejobs_bantha_ON
tatooine_anchorjobs_impcodes_ON
tatooine_knives_fencing
tatooine_knives_parry
