spawns	name	room	loc_x	loc_y	loc_z	yaw	script	mood	animation_mood	respawn_time	spawn_objvar	special_room	special_room_script	room_objvar	room_objvar_name	room_objvar_value
s	s	s	f	f	f	f	s	s	s	i	s	s	s	s	s	s
shaki_hamachil	Shaki Hamachil	world	-101	18	-1542.3	126	npc.static_quest.quest_convo			1	string:quest_table=shaki_hamachil					
shibb_nisshil	Shibb Nisshil	world	-71.1	18	-1639.2	-40	npc.static_quest.quest_convo			1	string:quest_table=shibb_nisshil					
leia_organa		world	-49	142	86	-60	"theme_park.alderaan.act3.rebel_commander,conversation.coa3wcoolguy"			1						
veers		world	-6303	123	-530	-50	"theme_park.alderaan.act3.imperial_commander,conversation.coa3lgeneralveers"			1						
