spawns	name	room	loc_x	loc_y	loc_z	yaw	script	mood	animation_mood	respawn_time	spawn_objvar	special_room	special_room_script	room_objvar	room_objvar_name	room_objvar_value	radius	planet_level
s	s	s	f	f	f	f	s	s	s	i	s	s	s	s	s	s	f	i[0]
nightsister_stalker		world	-4166.029297	24.22852707	-846.8596191	-120	theme_park.dungeon.generic_death			10800	int:ai.defaultCalmBehavior=1							1
nightsister_stalker		world	-4167.2	24.6	-844.9	-120	theme_park.dungeon.generic_death			10800	int:ai.defaultCalmBehavior=1						1.5	1
nightsister_spell_weaver		world	-4167.2	24.6	-844.9	70	theme_park.dungeon.generic_death			10800	int:ai.defaultCalmBehavior=1						1.5	1
nightsister_spell_weaver		world	-4185.9	25	-862.1	40	theme_park.dungeon.generic_death	npc_angry		10800	int:ai.defaultCalmBehavior=1							1
