objid	container	server_template_crc	cell_index	px	py	pz	qw	qx	qy	qz	scripts	objvars
i	i	h	i	f	f	f	f	f	f	f	s	p
1689040	0	object/tangible/furniture/all/frn_all_potted_plants_sml_s02.iff	0	586.3394	-149.067	2024.371	0.3295214	0	0.9441481	0		$|
1689041	0	object/tangible/furniture/all/frn_all_potted_plants_sml_s02.iff	0	586.4512	-149.031	2003.853	0.4713283	0	0.8819577	0		$|
1689043	0	object/static/structure/naboo/nboo_imprv_pillar_pillar_s03.iff	0	585.8755	-151	1994.611	0.99995	0	-0.009999774	0		$|
1689044	0	object/static/structure/naboo/nboo_imprv_pillar_pillar_s03.iff	0	576.897	-151	2025.661	0.9999875	0	0.004999565	0		$|
1689045	0	object/static/structure/naboo/planter_naboo_theed_style_1.iff	0	593.1089	-150	1988.357	0.7583608	0	-0.651835	0		$|
1689046	0	object/static/structure/naboo/planter_naboo_theed_style_1.iff	0	592.9102	-150	2039.571	0.7507543	0	-0.6605815	0		$|
1689049	0	object/static/structure/naboo/garden_gazebo_sml_s01.iff	0	591.9751	-145.627	2032	0	0	0	1		$|
1689050	0	object/static/structure/naboo/garden_gazebo_sml_s01.iff	0	591.9746	-141.648	2032	1	0	0	0		$|
1689051	0	object/static/structure/naboo/garden_gazebo_sml_s01.iff	0	591.7207	-145.637	1996.573	0	0	0	1		$|
1689052	0	object/static/structure/naboo/garden_gazebo_sml_s01.iff	0	591.7202	-141.657	1996.573	1	0	0	0		$|
1689053	0	object/static/structure/naboo/nboo_imprv_pillar_pillar_s03.iff	0	585.8516	-151	2033.732	0.99955	0	0.02999542	0		$|
1689054	0	object/static/structure/naboo/nboo_imprv_pillar_pillar_s03.iff	0	594.9526	-151	1985.521	0.99995	0	0.009999243	0		$|
1689055	0	object/static/structure/naboo/nboo_imprv_pillar_pillar_s03.iff	0	576.9482	-151	2002.571	0.9999875	0	-0.005000561	0		$|
1689056	0	object/static/structure/naboo/nboo_imprv_pillar_pillar_s03.iff	0	594.9321	-151	2042.342	0.9999875	0	0.004999565	0		$|
1689058	0	object/static/structure/naboo/nboo_imprv_pillar_wall_small_s01.iff	0	587.6924	-149.276	2025.244	0.9999875	0	1.97E-08	0.002129447		$|
1689059	0	object/static/structure/naboo/nboo_imprv_pillar_wall_small_s01.iff	0	585.501	-149.248	2023.13	0.7071069	0	0.7071071	0		$|
1689060	0	object/static/structure/naboo/nboo_imprv_pillar_pillar_s07.iff	0	585.5171	-149.248	2025.226	1	0	0	0		$|
1689061	0	object/static/structure/naboo/nboo_imprv_pillar_pillar_s07.iff	0	585.5542	-149.215	2002.83	-0.7071062	0	0.7071073	0		$|
1689062	0	object/static/structure/naboo/nboo_imprv_pillar_wall_small_s01.iff	0	585.5347	-149.18	2004.998	-0.7070983	0	0.7070975	-0.004703898		$|
1689063	0	object/static/structure/naboo/nboo_imprv_pillar_wall_small_s01.iff	0	587.6519	-149.215	2002.816	1	0	0	0		$|
1689064	0	object/static/structure/general/bench_generic_style_1.iff	0	589.0918	-149.047	2025.098	2.40E-08	0	0.9999504	-0.009047606		$|
1689065	0	object/static/structure/general/bench_generic_style_1.iff	0	591.6416	-149.052	2025.097	2.40E-08	0	0.9999504	-0.009047606		$|
1689066	0	object/static/structure/general/bench_generic_style_1.iff	0	589.042	-149.084	2002.794	0.9999875	0	5.70E-08	0.002129663		$|
1689067	0	object/static/structure/general/bench_generic_style_1.iff	0	591.5894	-149.052	2002.793	0.9999875	0	5.70E-08	0.002129663		$|
1689068	0	object/static/structure/naboo/arbor_short_s01.iff	0	559.3486	-150.294	1989.533	-0.7071071	0	0.7071068	0		$|
1689070	0	object/static/structure/naboo/elevated_walkway_cap_s01.iff	0	545.4839	-164.401	1989.488	1	0	0	0		$|
1689071	0	object/static/structure/naboo/bridge_stairs_s01.iff	0	553.6079	-157.298	1989.471	1	0	0	0		$|
1689072	0	object/static/structure/naboo/elevated_walkway_s01.iff	0	540.2593	-164.528	1989.475	1	0	0	0		$|
1689073	0	object/static/structure/naboo/enclosed_walkway_s02.iff	0	527.6138	-164.527	1989.487	1	0	0	0		$|
1689077	0	object/static/structure/naboo/arbor_short_s01.iff	0	565.3486	-150.294	1989.533	0.7071118	0	0.7071016	0		$|
1689078	0	object/static/structure/naboo/elevated_walkway_corner_s01.iff	0	507.27	-164.527	1997.48	0.70711	0	-0.7071035	0		$|
1689079	0	object/static/structure/naboo/elevated_walkway_corner_s01.iff	0	515.27	-164.527	2014.02	1	0	0	0		$|
1689081	0	object/static/structure/naboo/elevated_walkway_corner_s01.iff	0	540.1401	-164.527	2038.224	1	0	0	0		$|
1689089	0	object/static/structure/naboo/bridge_stairs_s01.iff	0	553.5024	-157.119	2038.218	1	0	0	0		$|
1689090	0	object/static/structure/naboo/elevated_walkway_cap_s01.iff	0	545.3784	-164.58	2038.235	1	0	0	0		$|
1689092	0	object/static/structure/naboo/arbor_short_s01.iff	0	565.2739	-150.359	2038.263	0.7071071	0	0.7071068	0		$|
1689094	0	object/static/structure/naboo/arbor_short_s01.iff	0	559.2783	-150.359	2038.263	-0.7071069	0	0.707107	0		$|
1689098	0	object/building/naboo/shuttleport_naboo.iff	0	669.5776	-150	2026.163	1	0	0	0	structure.municipal.starport:planet_map.map_loc	travel.cost|0|200|travel.ground_time|0|300|travel.is_shuttleport|0|1|travel.point_name|4|Lake Retreat Shuttleport|travel.shuttle_available|0|1|travel.version|0|3|$|
1689100	0	object/building/naboo/filler_building_naboo_theed_style_2.iff	0	568.7925	-150	2045.812	0.6559189	0	0.7548314	0		$|
1689101	0	object/building/naboo/filler_building_naboo_theed_style_2.iff	0	568.2676	-150	1981.683	0.6819299	0	0.731418	0		$|
1689102	0	object/building/naboo/filler_building_naboo_theed_style_2.iff	0	578.2202	-150	1969.514	0.9989877	0	0.0449845	0		$|
1691849	0	object/static/structure/naboo/nboo_imprv_pillar_pillar_s03.iff	0	555.1875	-150.5	2008.13	0.70711	0	0.7071034	0		$|
1691850	0	object/static/structure/naboo/nboo_imprv_pillar_pillar_s03.iff	0	564.1875	-150.5	1999.13	0.70711	0	0.7071034	0		$|
1691851	0	object/static/structure/naboo/nboo_imprv_pillar_pillar_s03.iff	0	555.188	-150.592	2020.129	0.7071106	0	0.7071028	0		$|
1691852	0	object/static/structure/naboo/nboo_imprv_pillar_pillar_s03.iff	0	564.188	-150.5	2029.129	0.7071103	0	0.7071031	0		$|
1691853	0	object/static/structure/naboo/nboo_imprv_pristine_wall_sml_s03.iff	0	555.1875	-150.318	2009.13	0.7071096	0	0.7071038	0		$|
1691854	0	object/static/structure/naboo/nboo_imprv_tall_curved_wall_large_s01.iff	0	563.1875	-150.318	2029.13	-3.48E-07	0	1	0		$|
1691855	0	object/static/structure/naboo/nboo_imprv_tall_curved_wall_large_s01.iff	0	555.188	-150.317	2007.129	0.70711	0	0.7071034	0		$|
1692537	0	object/static/structure/naboo/nboo_imprv_pillar_pillar_s01.iff	0	641.8584	-150	2043.324	1	0	0	0		$|
1692538	0	object/static/structure/naboo/gate_narrow_s01.iff	0	646.6753	-150	2011.728	-3.20E-08	0	1	0		$|
1692539	0	object/static/structure/naboo/nboo_imprv_pillar_pillar_s01.iff	0	641.6563	-150	2011.715	1	0	0	0		$|
1692540	0	object/static/structure/naboo/nboo_imprv_pillar_pillar_s01.iff	0	651.7422	-150	2011.781	-3.20E-08	0	1	0		$|
1692548	0	object/static/structure/naboo/nboo_imprv_pillar_pillar_s01.iff	0	681.6885	-150	2042.935	0.7071094	0	0.7071041	0		$|
1692549	0	object/static/structure/naboo/nboo_imprv_pristine_wall_large_s02.iff	0	682.0078	-150	2043.069	0.7928045	0	0.609476	0		$|
1714650	0	object/building/naboo/housing_naboo_style_3.iff	0	652.9336	-150	1968.38	1	0	0	0		$|
1714730	0	object/building/naboo/filler_building_naboo_theed_style_4.iff	0	677.9663	-150	1997.355	0.70711	0	-0.7071034	0		$|
1714732	0	object/building/naboo/filler_building_naboo_theed_style_4.iff	0	677.9683	-150	1976.281	-0.7071069	0	0.707107	0		$|
1716868	0	object/static/structure/naboo/arbor_pillar_s01.iff	0	630.5459	-150.412	1964.057	0.9238796	0	0.3826832	0		$|
1716870	0	object/static/structure/naboo/arbor_long_s01.iff	0	631.0967	-150.412	1964.538	-0.382683	0	0.92388	0		$|
1716871	0	object/static/structure/naboo/arbor_long_s01.iff	0	636.7505	-150.412	1970.19	-0.3826834	0	0.9238796	0		$|
1716872	0	object/static/structure/naboo/arbor_corner_45_s01.iff	0	642.2202	-150.338	1975.644	-0.382683	0	0.92388	0		$|
1716875	0	object/static/structure/naboo/arbor_pillar_s01.iff	0	643.0254	-150.338	1978.525	1	0	0	0		$|
1716877	0	object/static/structure/general/bench_generic_style_1.iff	0	655	-150	1997	0	0	1	0		$|
1716878	0	object/static/structure/general/bench_generic_style_1.iff	0	658	-150	2000	0.707106	0	0.707107	0		$|
1716879	0	object/static/structure/general/bench_generic_style_1.iff	0	652	-150	2000	-0.7071069	0	0.707107	0		$|
1716880	0	object/static/structure/general/bench_generic_style_1.iff	0	655	-150	2003	1	0	0	0		$|
1716881	0	object/static/structure/general/planter_generic_style_2.iff	0	655	-150	2000	1	0	0	0		$|
1716882	0	object/static/structure/naboo/nboo_imprv_pillar_pillar_s08.iff	0	653	-150	1998	1	0	0	0		$|
1716883	0	object/static/structure/naboo/nboo_imprv_pillar_pillar_s08.iff	0	653	-150	2002	1	0	0	0		$|
1716884	0	object/static/structure/naboo/nboo_imprv_pillar_pillar_s08.iff	0	657	-150	2002	1	0	0	0		$|
1716885	0	object/static/structure/naboo/nboo_imprv_pillar_pillar_s08.iff	0	657	-150	1998	1	0	0	0		$|
1716886	0	object/static/structure/general/bench_generic_style_1.iff	0	655	-150	1983	0	0	1	0		$|
1716887	0	object/static/structure/general/bench_generic_style_1.iff	0	658	-150	1986	0.707106	0	0.707107	0		$|
1716888	0	object/static/structure/general/bench_generic_style_1.iff	0	652	-150	1986	-0.7071069	0	0.707107	0		$|
1716889	0	object/static/structure/general/bench_generic_style_1.iff	0	655	-150	1989	1	0	0	0		$|
1716890	0	object/static/structure/general/planter_generic_style_2.iff	0	655	-150	1986	1	0	0	0		$|
1716891	0	object/static/structure/naboo/nboo_imprv_pillar_pillar_s08.iff	0	653	-150	1984	1	0	0	0		$|
1716892	0	object/static/structure/naboo/nboo_imprv_pillar_pillar_s08.iff	0	653	-150	1988	1	0	0	0		$|
1716893	0	object/static/structure/naboo/nboo_imprv_pillar_pillar_s08.iff	0	657	-150	1988	1	0	0	0		$|
1716894	0	object/static/structure/naboo/nboo_imprv_pillar_pillar_s08.iff	0	657	-150	1984	1	0	0	0		$|
1716898	0	object/static/structure/general/planter_generic_style_1.iff	0	632.3521	-150.074	1971.964	-0.3040043	0	0.9526707	0		$|
1716901	0	object/tangible/furniture/all/frn_all_decorative_lg_s1.iff	0	570	-150	2011	0.3826837	0	0.9238794	0		$|
1716902	0	object/tangible/furniture/all/frn_all_decorative_lg_s1.iff	0	564	-150	2011	0.9238791	0	-0.3826845	0		$|
1716903	0	object/tangible/furniture/all/frn_all_decorative_lg_s1.iff	0	570	-150	2018	0.3826837	0	0.9238794	0		$|
1716904	0	object/tangible/furniture/all/frn_all_decorative_lg_s1.iff	0	564	-150	2018	0.9238791	0	-0.3826845	0		$|
1716905	0	object/tangible/furniture/all/frn_all_decorative_lg_s1.iff	0	567	-150	2021	0.9238797	0	0.382683	0		$|
1716906	0	object/tangible/furniture/all/frn_all_decorative_lg_s1.iff	0	567	-150	2008	-0.3826844	0	0.9238794	0		$|
1716907	0	object/static/structure/general/bench_generic_style_1.iff	0	565	-150	2013	0.9238791	0	-0.3826845	0		$|
1716908	0	object/static/structure/general/bench_generic_style_1.iff	0	565	-150	2020	0.9238791	0	-0.3826845	0		$|
1716909	0	object/static/structure/general/bench_generic_style_1.iff	0	565	-150	2016	-0.3826844	0	0.9238794	0		$|
1716910	0	object/static/structure/general/bench_generic_style_1.iff	0	569	-150	2020	0.9238797	0	0.382683	0		$|
1716911	0	object/static/structure/general/bench_generic_style_1.iff	0	569	-150	2016	0.3826837	0	0.9238794	0		$|
1716912	0	object/static/flora/potted_plant_flowers_orange.iff	0	566	-150	2018	0.3826837	0	0.9238794	0		$|
1716913	0	object/static/flora/potted_plant_flowers_orange.iff	0	568	-150	2018	0.3826837	0	0.9238794	0		$|
1716914	0	object/static/flora/potted_plant_flowers_purple.iff	0	567	-150	2019	0.3826837	0	0.9238794	0		$|
1716915	0	object/static/flora/potted_plant_flowers_purple.iff	0	567	-150	2017	0.3826837	0	0.9238794	0		$|
1716916	0	object/static/structure/general/bench_generic_style_1.iff	0	569	-150	2013	0.9238797	0	0.382683	0		$|
1716917	0	object/static/structure/general/bench_generic_style_1.iff	0	569	-150	2009	0.3826837	0	0.9238794	0		$|
1716918	0	object/static/flora/potted_plant_flowers_orange.iff	0	566	-150	2011	0.3826837	0	0.9238794	0		$|
1716919	0	object/static/flora/potted_plant_flowers_orange.iff	0	568	-150	2011	0.3826837	0	0.9238794	0		$|
1716920	0	object/static/flora/potted_plant_flowers_purple.iff	0	567	-150	2012	0.3826837	0	0.9238794	0		$|
1716921	0	object/static/flora/potted_plant_flowers_purple.iff	0	567	-150	2010	0.3826837	0	0.9238794	0		$|
1716922	0	object/static/structure/general/bench_generic_style_1.iff	0	565	-150	2009	-0.3826844	0	0.9238794	0		$|
1716924	0	object/static/structure/general/streetlamp_large_style_02.iff	0	567	-150	2014.5	0.7071069	0	0.7071065	0		$|
1716925	0	object/static/structure/naboo/obelisk_naboo_theed_style_1.iff	0	567	-150.355	2011	0.7071096	0	0.7071038	0		$|
1716926	0	object/static/structure/naboo/obelisk_naboo_theed_style_1.iff	0	567	-150.355	2018	0.7071096	0	0.7071038	0		$|
1716928	0	object/static/structure/general/planter_generic_style_1.iff	0	561	-150.384	2004	0.8928877	0	-0.4502794	0		$|
1716929	0	object/static/structure/general/planter_generic_style_1.iff	0	561	-150	2025	0.9626307	0	0.2708173	0		$|
1716946	0	object/tangible/furniture/all/frn_all_tree_potted_s1.iff	0	509.3574	-157.359	1994.76	0.707109	0	-0.7071045	0		$|
1716947	0	object/tangible/furniture/all/frn_all_tree_potted_s1.iff	0	509.3579	-157.375	1999.002	0.707109	0	-0.7071045	0		$|
1716948	0	object/static/structure/general/bench_generic_style_1.iff	0	509.0811	-157.346	1996.81	-0.707107	0	0.7071069	0		$|
1716952	0	object/tangible/furniture/all/frn_all_tree_potted_s1.iff	0	509.3496	-157.376	2003.413	-0.7071069	0	0.707107	0		$|
1716953	0	object/tangible/furniture/all/frn_all_tree_potted_s1.iff	0	509.3501	-157.383	2007.656	-0.7071069	0	0.707107	0		$|
1716954	0	object/static/structure/general/bench_generic_style_1.iff	0	509.0732	-157.351	2005.464	-0.7071069	0	0.707107	0		$|
1716967	0	object/static/structure/general/bench_generic_style_1.iff	0	662.9956	-150	2047.16	0	0	1	0		$|
1716994	0	object/static/structure/naboo/nboo_imprv_tall_curved_wall_large_s01.iff	0	585.9424	-150.545	1993.502	0.7071106	0	0.7071028	0		$|
1716995	0	object/static/structure/naboo/nboo_imprv_tall_curved_wall_large_s01.iff	0	585.8999	-150.545	1994.572	0.7071117	0	-0.7071018	0		$|
1717002	0	object/static/structure/naboo/nboo_imprv_tall_curved_wall_large_s01.iff	0	593.9014	-150.545	2042.367	-3.20E-08	0	1	0		$|
1717004	0	object/static/structure/naboo/nboo_imprv_tall_curved_wall_large_s01.iff	0	577.9082	-150.545	2025.653	1	0	0	0		$|
1717118	0	object/static/structure/naboo/nboo_imprv_pillar_pillar_s02.iff	0	601.4507	-152.044	1948.005	0.617373	0	0.7866705	0		$|
1717119	0	object/static/structure/naboo/planter_naboo_theed_style_1.iff	0	596.2944	-150	1950.799	-0.4360213	0	0.8999363	0		$|
1717120	0	object/static/structure/naboo/nboo_imprv_pillar_pillar_s02.iff	0	591.7173	-152.044	1954.142	0.9435195	0	0.331317	0		$|
1717121	0	object/static/structure/naboo/planter_naboo_theed_style_1.iff	0	587.8516	-150	1957.956	0.2844073	0	0.9587035	0		$|
1717122	0	object/static/structure/naboo/nboo_imprv_pillar_pillar_s02.iff	0	584.4663	-152.044	1963.556	0.8714237	0	0.490531	0		$|
1717137	0	object/static/structure/naboo/seawall_stair_naboo_theed_style_1.iff	0	598.4907	-163.849	1926.817	0.7695247	0	-0.638617	0		$|
1717138	0	object/static/structure/naboo/seawall_stair_naboo_theed_style_1.iff	0	603.1919	-155.803	1944.738	-0.092566	0	0.995707	0		$|
1717141	0	object/static/structure/general/streetlamp_large_style_02.iff	0	610.9897	-149.803	1941.947	0.6368445	0	0.7709922	0		$|
1717142	0	object/static/structure/general/streetlamp_large_style_02.iff	0	595.7007	-157.713	1919	-0.09485668	0	0.995491	0		$|
1717179	0	object/static/structure/general/bench_generic_style_1.iff	0	598.6284	-149.842	1962.82	0	0	1	0		$|
1717180	0	object/static/structure/general/bench_generic_style_1.iff	0	603.6284	-149.842	1967.82	0.707106	0	0.707107	0		$|
1717181	0	object/static/structure/general/bench_generic_style_1.iff	0	593.6284	-149.842	1967.82	-0.7071069	0	0.707107	0		$|
1717182	0	object/static/structure/general/bench_generic_style_1.iff	0	598.6284	-149.842	1972.82	1	0	0	0		$|
1717187	0	object/static/structure/general/fountain_generic_style_1.iff	0	598.6284	-150.282	1967.82	1	0	0	0		$|
1717195	0	object/static/flora/potted_plant_flowers_orange.iff	0	594.7231	-149.842	1969.788	0.4402376	0	0.8978813	0		$|
1717196	0	object/static/flora/potted_plant_flowers_orange.iff	0	600.6167	-149.842	1971.803	0.9818931	0	-0.1894357	0		$|
1717197	0	object/static/flora/potted_plant_flowers_purple.iff	0	602.6934	-149.842	1969.794	0.9203283	0	-0.3911467	0		$|
1717198	0	object/static/flora/potted_plant_flowers_purple.iff	0	596.7808	-149.842	1971.885	-0.3746628	0	0.9271611	0		$|
1717203	0	object/static/flora/potted_plant_flowers_purple.iff	0	600.6025	-149.842	1963.878	0.9350886	0	0.3544141	0		$|
1717204	0	object/static/flora/potted_plant_flowers_purple.iff	0	594.6187	-149.842	1965.934	0.7649829	0	0.6440505	0		$|
1717205	0	object/static/flora/potted_plant_flowers_orange.iff	0	602.6353	-149.842	1965.826	0.996614	0	0.08222278	0		$|
1717206	0	object/static/flora/potted_plant_flowers_orange.iff	0	596.6455	-149.842	1963.832	0.9820384	0	0.1886812	0		$|
1717210	0	object/static/structure/naboo/planter_naboo_theed_style_1.iff	0	608.0571	-150	1982.771	0.8668169	0	0.4986265	0		$|
1717211	0	object/static/structure/naboo/planter_naboo_theed_style_1.iff	0	616.1611	-150	1964.452	0.8877324	0	-0.4603598	0		$|
1717218	0	object/static/structure/naboo/planter_naboo_theed_style_1.iff	0	632.6016	-150.054	1944.837	0.04880757	0	0.9988078	0		$|
1717219	0	object/static/structure/naboo/nboo_imprv_pillar_pillar_s02.iff	0	626.4219	-151.665	1944.164	0.9983587	0	-0.05726945	0		$|
1717220	0	object/static/structure/naboo/planter_naboo_theed_style_1.iff	0	620.0918	-150.228	1943.9	0.709188	0	0.7050199	0		$|
1717221	0	object/static/structure/naboo/nboo_imprv_pillar_pillar_s02.iff	0	614.6509	-152.044	1945.389	0.9977093	0	0.06764721	0		$|
1717222	0	object/static/structure/naboo/nboo_imprv_pillar_pillar_s02.iff	0	639.1016	-151.435	1948.133	0.9045818	0	0.4263	0		$|
1717231	0	object/static/structure/naboo/nboo_imprv_pillar_pillar_s02.iff	0	643.6138	-151.509	1959.479	0.7163048	0	-0.6977876	0		$|
1717232	0	object/static/structure/naboo/planter_naboo_theed_style_1.iff	0	642.5659	-150.074	1952.921	0.9936871	0	0.1121872	0		$|
1717263	0	object/static/structure/naboo/arbor_pillar_s01.iff	0	642.9199	-150.338	1980.003	1	0	0	0		$|
1717264	0	object/static/structure/naboo/arbor_pillar_s01.iff	0	642.9199	-150.338	1981.525	1	0	0	0		$|
1717268	0	object/static/flora/potted_plant_flowers_orange.iff	0	643.2769	-150	1970.992	0.5453992	0	0.8381764	0		$|
1717269	0	object/static/flora/potted_plant_flowers_orange.iff	0	643.2334	-150.074	1963.908	0.9713647	0	0.2375932	0		$|
1717270	0	object/static/flora/potted_plant_flowers_purple.iff	0	643.3154	-150	1967.223	0.4730211	0	0.8810511	0		$|
1717271	0	object/static/structure/general/bench_generic_style_1.iff	0	643.3975	-150	1969.244	0.7071096	0	-0.7071038	0		$|
1717272	0	object/static/structure/general/bench_generic_style_1.iff	0	643.4097	-150.074	1965.623	0.7071106	0	-0.7071028	0		$|
1717281	0	object/static/structure/general/streetlamp_large_style_02.iff	0	566.3555	-150.447	1999.221	0.7071099	0	-0.7071036	0		$|
1717282	0	object/static/structure/general/streetlamp_large_style_02.iff	0	566.3521	-150.271	2029.181	0.7071291	0	-0.7070839	0		$|
1717290	0	object/static/structure/general/planter_generic_style_2.iff	0	558	-150	2018	0.9868763	0	0.1614779	0		$|
1717291	0	object/static/structure/general/planter_generic_style_2.iff	0	558	-150	2011	-0.6929054	0	0.7210286	0		$|
1717324	0	object/static/structure/general/streetlamp_large_style_02.iff	0	506.6353	-157.332	1988.961	0.9151163	0	0.40319	0		$|
1717337	0	object/static/structure/general/streetlamp_large_style_02.iff	0	506.8135	-157.329	2014.661	0.3619904	0	0.9321818	0		$|
1717341	0	object/static/structure/general/streetlamp_large_style_02.iff	0	531.8525	-157.325	2038.958	0.3573249	0	0.9339802	0		$|
1717344	0	object/static/structure/general/streetlamp_large_style_02.iff	0	521.4106	-157.492	2016.764	0.7071069	0	0.707107	0		$|
1717345	0	object/static/structure/general/streetlamp_large_style_02.iff	0	543.8364	-157.321	2040.539	0	0	1	0		$|
1717347	0	object/static/structure/general/streetlamp_large_style_02.iff	0	543.981	-157.34	1987.183	0	0	1	0		$|
1865359	0	object/building/naboo/hotel_naboo_theed.iff	0	617.1216	-150	2013.978	0.7071087	0	-0.7071047	0		$|
1865360	1865359	object/cell/cell.iff	1	0	0	0	1	1.40E-45	0	0		$|
1865361	1865359	object/cell/cell.iff	2	0	0	0	1	2.80E-45	0	0		$|
1865362	1865359	object/cell/cell.iff	3	0	0	0	1	4.20E-45	0	0		$|
1865363	1865359	object/cell/cell.iff	4	0	0	0	1	5.61E-45	0	0		$|
1143461	1865363	object/tangible/gambling/slot/standard.iff	4	4.361209	1.337073	-22.12539	0.9999973	0	-0.002301926	0		$|
1143462	1865363	object/tangible/gambling/slot/standard.iff	4	0.2877495	1.336173	-22.0829	0.9999973	0	-0.002301926	0		$|
1143463	1865363	object/tangible/gambling/wheel/roulette.iff	4	-1.192052	1.146369	-16.22235	0.9999973	0	-0.002301926	0		$|
1143464	1865363	object/tangible/gambling/wheel/roulette.iff	4	9.452621	1.14733	-16.23299	0.9999973	0	-0.002301926	0		$|
1143465	1865363	object/tangible/gambling/slot/standard.iff	4	8.403151	1.337073	-22.22951	0.9999973	0	-0.002301926	0		$|
7825690	1865363	object/soundobject/soundobject_city_crowd_small.iff	4	-0.546447	0.999992	0.1061	1	0	0	0		$|
1865364	1865359	object/cell/cell.iff	5	0	0	0	1	7.01E-45	0	0		$|
7825691	1865364	object/soundobject/soundobject_cantina_medium.iff	5	20.68838	1.283091	-1.671329	1	0	0	0		$|
1865365	1865359	object/cell/cell.iff	6	0	0	0	1	8.41E-45	0	0		$|
1143455	1865365	object/tangible/gambling/wheel/roulette.iff	6	-15.93435	1.00109	-0.1266159	0.9999243	0	-0.01230162	0		$|
1143456	1865365	object/tangible/gambling/wheel/roulette.iff	6	-16.02791	1.001105	4.241971	0.9999243	0	-0.01230162	0		$|
1143457	1865365	object/tangible/gambling/slot/standard.iff	6	-12.34805	1.000922	-0.06228746	-0.698352	0	0.7157555	0		$|
1143458	1865365	object/tangible/gambling/slot/standard.iff	6	-12.14521	1.000769	-0.07828605	0.7157528	0	0.6983537	0		$|
1143459	1865365	object/tangible/gambling/slot/standard.iff	6	-12.11422	1.001029	4.229815	0.7068264	0	0.7073871	0		$|
1143460	1865365	object/tangible/gambling/slot/standard.iff	6	-12.3162	1.000876	4.250667	0.7073807	0	-0.7068333	0		$|
8085633	1865365	object/soundobject/soundobject_city_crowd_small.iff	6	-17.47244	1.001006	2.451559	1	0	0	0		$|
9588475	1865365	object/tangible/collection/plant_03.iff	6	-26.08623	1.573798	3.025455	1	0	0	0		$|
1865366	1865359	object/cell/cell.iff	7	0	0	0	1	9.81E-45	0	0		$|
1865367	1865359	object/cell/cell.iff	8	0	0	0	1	1.12E-44	0	0		$|
1865368	1865359	object/cell/cell.iff	9	0	0	0	1	1.26E-44	0	0		$|
7146982	1865368	object/tangible/collection/hanging_light_02.iff	9	-19.89062	3.437177	-14.44229	0.7038454	0	0.7103533	0		$|
491454246	1865368	object/tangible/collection/col_force_shui_table_02.iff	9	-11.0653	1.839273	-13.56677	0.9650925	0	0	0		$|
1865369	1865359	object/cell/cell.iff	10	0	0	0	1	1.40E-44	0	0		$|
1865372	0	object/static/structure/general/bench_generic_style_1.iff	0	639.4004	-150	1997.673	0.7071068	0	0.7071072	0		$|
1865373	0	object/static/structure/general/bench_generic_style_1.iff	0	639.3418	-150	2000.938	0.7071068	0	0.7071072	0		$|
1865374	0	object/static/flora/potted_plant_flowers_orange.iff	0	639.521	-150	1995.925	0.838177	0	-0.5453984	0		$|
1865375	0	object/static/flora/potted_plant_flowers_orange.iff	0	639.5181	-150	2002.653	-0.2375931	0	0.9713648	0		$|
1865376	0	object/static/flora/potted_plant_flowers_purple.iff	0	639.436	-150	1999.338	0.8810512	0	-0.4730208	0		$|
1865379	0	object/static/structure/naboo/seawall_stair_naboo_theed_style_1.iff	0	601.3574	-159.896	1934.976	-0.092566	0	0.995707	0		$|
1865380	0	object/static/structure/naboo/seawall_block.iff	0	603.5498	-164.104	1921.596	0.9954908	0	0.09485746	0		$|
1865381	0	object/static/structure/naboo/seawall_straight_naboo_theed_style_1.iff	0	598.6074	-163.943	1916.439	-0.09485707	0	0.9954909	0		$|
1865382	0	object/static/structure/naboo/seawall_straight_naboo_theed_style_1.iff	0	608.6675	-163.942	1916.524	0.6368448	0	0.770992	0		$|
1865383	0	object/static/structure/naboo/seawall_corner.iff	0	608.0796	-163.942	1913.591	0.6368443	0	0.7709923	0		$|
1865387	0	object/static/structure/naboo/seawall_corner.iff	0	611.5371	-163.942	1926.146	0.9954909	0	0.09485661	0		$|
1865388	0	object/static/structure/general/streetlamp_large_style_02.iff	0	609.147	-153.836	1932.215	0.636845	0	0.770992	0		$|
1865398	0	object/static/structure/naboo/nboo_imprv_pillar_pillar_s07.iff	0	609.1426	-154.961	1935.688	0.9959527	0	0.08987903	0		$|
1865399	0	object/static/structure/naboo/nboo_imprv_pillar_pillar_s07.iff	0	602.4238	-154.961	1936.922	0.9959527	0	0.08987903	0		$|
1865400	0	object/static/structure/naboo/nboo_imprv_pillar_pillar_s07.iff	0	610.7671	-149.684	1944.766	0.6406908	0	0.767799	0		$|
1865401	0	object/static/structure/naboo/nboo_imprv_pillar_pillar_s07.iff	0	604.0967	-149.684	1946.01	0.767799	0	-0.6406909	0		$|
1865402	0	object/static/structure/general/bench_generic_style_1.iff	0	610.0786	-157.848	1922.27	0.7709988	0	-0.6368366	0		$|
1865403	0	object/static/structure/general/bench_generic_style_1.iff	0	609.5166	-157.848	1919.052	0.7709988	0	-0.6368366	0		$|
1865404	0	object/static/flora/potted_plant_flowers_orange.iff	0	609.021	-157.848	1917.402	0.9444474	0	0.3286626	0		$|
1865405	0	object/static/flora/potted_plant_flowers_purple.iff	0	609.7285	-157.848	1920.641	0.3873141	0	0.9219477	0		$|
1865406	0	object/static/flora/potted_plant_flowers_orange.iff	0	610.2905	-157.848	1924.009	0.4634328	0	0.8861316	0		$|
1865407	0	object/static/structure/general/bench_generic_style_1.iff	0	604.3901	-157.843	1915.058	0.9954906	0	0.09486049	0		$|
1865408	0	object/static/structure/general/bench_generic_style_1.iff	0	601.1724	-157.843	1915.617	0.9954906	0	0.09486049	0		$|
1865409	0	object/static/flora/potted_plant_flowers_orange.iff	0	599.522	-157.843	1916.114	0.4354257	0	0.9002247	0		$|
1865410	0	object/static/flora/potted_plant_flowers_purple.iff	0	602.7607	-157.843	1915.407	-0.3780429	0	0.9257879	0		$|
1865411	0	object/static/flora/potted_plant_flowers_orange.iff	0	606.1289	-157.843	1914.846	-0.2988925	0	0.9542864	0		$|
1865412	0	object/static/structure/general/bench_generic_style_1.iff	0	630.4546	-150	1977.854	0.7071038	0	0.7071092	0		$|
1865413	0	object/static/structure/general/bench_generic_style_1.iff	0	630.356	-150	1981.656	0.7071038	0	0.7071092	0		$|
1865415	0	object/static/flora/potted_plant_flowers_purple.iff	0	630.4497	-150	1976.117	0.8810512	0	-0.4730208	0		$|
1865416	0	object/static/flora/potted_plant_flowers_orange.iff	0	630.4043	-150	1979.48	0.838177	0	-0.5453983	0		$|
1865417	0	object/static/flora/potted_plant_flowers_purple.iff	0	630.3896	-150	1983.387	0.2845942	0	0.9586481	0		$|
1865418	0	object/tangible/furniture/all/frn_all_decorative_lg_s2.iff	0	636.8169	-148.893	1983.219	1	0	0	0		$|
1865421	0	object/static/structure/naboo/nboo_imprv_short_curved_wall_small_s01.iff	0	633.8384	-150	1984.628	0.9238795	0	0.3826835	0		$|
1865423	0	object/static/flora/potted_plant_leaves_small.iff	0	638.4424	-149.273	1983.766	0.9986062	0	-0.05277937	0		$|
1865424	0	object/static/flora/potted_plant_leaves_small.iff	0	635.0815	-149.273	1983.785	0.2826852	0	0.9592127	0		$|
1865428	0	object/tangible/furniture/tatooine/frn_tato_table_small_style_03.iff	0	636.8101	-149.633	1983.215	1	0	0	0		$|
1895352	0	object/static/structure/naboo/nboo_imprv_pillar_wall_small_s01.iff	0	606.2695	-155.977	1928.48	-0.08987864	0	0.9959527	0		$|
1895353	0	object/static/structure/naboo/nboo_imprv_pillar_pillar_s07.iff	0	608.2285	-155.977	1928.145	-0.08987864	0	0.9959527	0		$|
1895354	0	object/static/structure/naboo/nboo_imprv_pillar_pillar_s07.iff	0	600.9609	-155.977	1929.43	0.9959527	0	0.08987905	0		$|
1895355	0	object/static/structure/naboo/nboo_imprv_pillar_wall_small_s01.iff	0	602.9199	-155.977	1929.095	0.9959527	0	0.08987905	0		$|
1895360	0	object/static/structure/naboo/nboo_imprv_pillar_wall_small_s01.iff	0	608.6748	-149.684	1945.172	-0.08987882	0	0.995953	0		$|
1895363	0	object/static/structure/naboo/nboo_imprv_pillar_wall_small_s01.iff	0	606.1284	-149.684	1945.625	0.9959527	0	0.08987901	0		$|
1895364	0	object/static/structure/naboo/nboo_imprv_pillar_wall_small_s01.iff	0	603.707	-149.675	1944.022	0.6406908	0	0.767799	0		$|
1895365	0	object/static/structure/naboo/nboo_imprv_pillar_wall_small_s01.iff	0	610.4229	-149.675	1942.763	0.6406908	0	0.767799	0		$|
1895368	0	object/static/structure/naboo/seawall_corner.iff	0	599.0483	-163.942	1929.628	0.7709924	0	-0.6368443	0		$|
1895370	0	object/static/structure/naboo/nboo_imprv_pillar_wall_small_s01.iff	0	599.0479	-157.863	1917.237	0.767799	0	-0.6406909	0		$|
2705720	0	object/static/flora/potted_plant_leaves_small.iff	0	513.457	-157.124	2046.496	0.7648422	0	0.6442177	0		$|
2705721	0	object/static/flora/potted_plant_leaves_small.iff	0	513.3892	-157.099	2045.511	1	0	0	0		$|
2705722	0	object/static/flora/potted_plant_leaves_small.iff	0	513.3628	-157.057	2044.529	-0.1831638	0	0.9830824	0		$|
2705723	0	object/static/flora/potted_plant_leaves_small.iff	0	513.3979	-157.115	2043.461	0.9171208	0	-0.3986093	0		$|
2705724	0	object/static/item/item_jar_berries.iff	0	514.5967	-156.203	2045.392	1	0	0	0		$|
2705725	0	object/static/item/item_jar_berries.iff	0	514.8022	-156.175	2045.191	1	0	0	0		$|
2705727	0	object/static/item/item_jar_empty.iff	0	514.293	-156.248	2045.47	1	0	0	0		$|
3495352	0	object/static/structure/naboo/elevated_walkway_cap_s01.iff	0	520.377	-164.58	2014.044	1	0	0	0		$|
3495364	0	object/static/structure/naboo/elevated_walkway_cap_s01.iff	0	532.1655	-164.58	2025.398	0.7071072	0	0.7071063	0		$|
3495366	0	object/static/structure/general/streetlamp_large_style_02.iff	0	529.4663	-157.223	2024.251	-3.48E-07	0	1	0		$|
3585407	0	object/static/structure/naboo/elevated_walkway_cap_s01.iff	0	558.2573	-157.241	2038.224	1	0	0	0		$|
3585408	0	object/static/structure/naboo/elevated_walkway_cap_s01.iff	0	558.3398	-157.292	1989.528	1	0	0	0		$|
4655384	0	object/static/structure/general/streetlamp_large_style_02.iff	0	577.1323	-150	1979	-0.4443082	0	0.8958743	0		$|
4655385	0	object/tangible/terminal/terminal_bank.iff	0	657.667	-150	2042.4	0.99995	0	-0.009999923	0		$|
4655386	0	object/tangible/terminal/terminal_bazaar.iff	0	655.5757	-150	2042.217	0.9999875	0	-0.004999926	0		$|
6015359	0	object/static/structure/general/streetlamp_large_style_02.iff	0	585.979	-149.02	2003.351	0.707107	0	-0.7071065	0		$|
6015360	0	object/static/structure/general/streetlamp_large_style_02.iff	0	585.9199	-149.02	2024.784	0.7071072	0	0.7071063	0		$|
6015366	0	object/static/structure/general/streetlamp_large_style_02.iff	0	568.7705	-139.533	2045.852	0.000563103	0	-0.000563103	0.7071066		$|
6015368	0	object/static/structure/general/streetlamp_large_style_02.iff	0	599.5942	-150	2044.536	1	0	0	0		$|
6015377	0	object/static/structure/general/streetlamp_large_style_02.iff	0	639.2842	-150	2004.16	0.707107	0	0.7071065	0		$|
6015379	0	object/static/structure/general/streetlamp_large_style_02.iff	0	630.4604	-150	1980.281	0.7071074	0	-0.7071061	0		$|
6015380	0	object/static/structure/general/streetlamp_large_style_02.iff	0	643.293	-150	1967.836	0.707107	0	-0.7071065	0		$|
6015381	0	object/static/structure/general/streetlamp_large_style_02.iff	0	654.4878	-150	1992.953	0.707107	0	0.7071065	0		$|
6015384	0	object/static/structure/general/streetlamp_large_style_02.iff	0	658.5371	-150	1975.298	1	0	0	0		$|
6015385	0	object/static/structure/general/streetlamp_large_style_02.iff	0	592.1055	-150.078	1951.411	0.9483829	0	0.3171275	0		$|
6015387	0	object/static/structure/general/streetlamp_large_style_02.iff	0	578.2256	-139.751	1969.453	0.005796364	0	0	0.9999832		$|
6015388	0	object/static/structure/general/streetlamp_large_style_02.iff	0	568.2554	-139.723	1981.651	0.004203646	0	0	0.9999911		$|
6015391	0	object/static/structure/general/streetlamp_large_style_02.iff	0	560.3389	-150	1986.555	0.7071069	0	-0.7071065	0		$|
6015392	0	object/static/structure/general/streetlamp_large_style_02.iff	0	608.9063	-157.898	1916.108	0.7709929	0	-0.6368437	0		$|
6215383	0	object/static/structure/general/streetlamp_large_style_02.iff	0	610.1797	-150	1966.773	0.7071069	0	0.7071065	0		$|
6875371	0	object/soundobject/soundobject_city_crowd_medium.iff	0	623.9761	-150	1953.407	1	0	0	0		$|
6875372	0	object/soundobject/soundobject_city_crowd_medium.iff	0	652.5098	-150	1993.565	1	0	0	0		$|
7345381	0	object/soundobject/soundobject_city_crowd_medium.iff	0	569.6187	-150	2003.399	1	0	0	0		$|
8905453	0	object/static/structure/naboo/nboo_imprv_flagpole_s01.iff	0	617.688	-124.264	2013.888	1	0	0	0		$|
8905454	0	object/static/structure/naboo/nboo_imprv_flagpole_s01.iff	0	657.5288	-141.298	2010.754	1	0	0	0		$|
8905455	0	object/static/structure/naboo/nboo_imprv_bannerpole_s01.iff	0	598.6772	-158.272	1927.147	0.9954908	0	0.09485723	0		$|
8905456	0	object/static/structure/naboo/nboo_imprv_bannerpole_s01.iff	0	609.8613	-158.222	1925.011	-0.09485696	0	0.9954909	0		$|
8905457	0	object/static/structure/naboo/nboo_imprv_flagpole_s01.iff	0	592.0195	-131.562	2032.038	1	0	0	0		$|
8905458	0	object/static/structure/naboo/nboo_imprv_flagpole_s01.iff	0	592.0098	-131.563	1996.49	1	0	0	0		$|
8905499	0	object/static/structure/naboo/nboo_imprv_pillar_lattice_s01.iff	0	610.5151	-153.562	1934.802	0.6368443	0	0.7709923	0		$|
8905500	0	object/static/structure/naboo/nboo_imprv_pillar_lattice_s01.iff	0	601.2886	-153.662	1936.598	0.636844	0	0.770992	0		$|
8905501	0	object/static/structure/naboo/nboo_imprv_pillar_lattice_s01.iff	0	601.29	-157.66	1936.598	2.06E-08	0	2.55E-08	-0.636844		$|
9865370	0	object/building/naboo/filler_building_naboo_theed_style_4.iff	0	620.6763	-150.074	1976.016	0.7071078	0	-0.7071057	0		$|
9865371	0	object/static/structure/general/bench_generic_style_1.iff	0	631.7729	-150	1985.224	-3.13E-06	0	0.9999998	0		$|
