spawns	name	room	loc_x	loc_y	loc_z	yaw	script	mood	animation_mood	respawn_time	spawn_objvar	special_room	special_room_script	room_objvar	room_objvar_name	room_objvar_value	radius	planet_level
s	s	s	f	f	f	f	s	s	s	i	s	s	s	s	s	s	f	i[0]
narglatch_hunter		r1	-1.064367056	-12.25279236	-9.649842262		theme_park.dungeon.generic_death			1800	 int:ai.defaultCalmBehavior=2						1.5	1
narglatch_hunter		r1	-1.064367056	-12.25279236	-9.649842262		theme_park.dungeon.generic_death			1800	 int:ai.defaultCalmBehavior=2						1.5	1
narglatch_cub		r1	20.75439835	-27.00740814	-7.635478973		theme_park.dungeon.generic_death			1800	 int:ai.defaultCalmBehavior=2						1.5	1
narglatch_cub		r1	20.75439835	-27.00740814	-7.635478973		theme_park.dungeon.generic_death			1800	 int:ai.defaultCalmBehavior=2						1.5	1
narglatch_cub		r1	20.75439835	-27.00740814	-7.635478973		theme_park.dungeon.generic_death			1800	 int:ai.defaultCalmBehavior=2						1.5	1
narglatch_cub		r1	20.75439835	-27.00740814	-7.635478973		theme_park.dungeon.generic_death			1800	 int:ai.defaultCalmBehavior=2						1.5	1
narglatch_guardian		r2	24.19349289	-38.23645782	-32.48784637		theme_park.dungeon.generic_death			1800	 int:ai.defaultCalmBehavior=2						1.5	1
narglatch_guardian		r2	24.19349289	-38.23645782	-32.48784637		theme_park.dungeon.generic_death			1800	 int:ai.defaultCalmBehavior=2						1.5	1
narglatch_cub		r2	23.01330566	-42.21466827	-67.68199921		theme_park.dungeon.generic_death			1800	 int:ai.defaultCalmBehavior=2						1.5	1
narglatch_cub		r2	23.01330566	-42.21466827	-67.68199921		theme_park.dungeon.generic_death			1800	 int:ai.defaultCalmBehavior=2						1.5	1
narglatch_cub		r2	23.01330566	-42.21466827	-67.68199921		theme_park.dungeon.generic_death			1800	 int:ai.defaultCalmBehavior=2						1.5	1
narglatch_hunter		r2	27.53055	-43.30690384	-67.14755249		theme_park.dungeon.generic_death			1800	 int:ai.defaultCalmBehavior=2						1.5	1
narglatch_guardian		r2	45.38860703	-47.23974609	-27.18453979		theme_park.dungeon.generic_death			1800	 int:ai.defaultCalmBehavior=2						1.5	1
narglatch_guardian		r2	45.38860703	-47.23974609	-27.18453979		theme_park.dungeon.generic_death			1800	 int:ai.defaultCalmBehavior=2						1.5	1
narglatch_cub		r2	51.91511154	-67.74233246	-47.81422043		theme_park.dungeon.generic_death			1800	 int:ai.defaultCalmBehavior=2						1.5	1
narglatch_cub		r2	51.91511154	-67.74233246	-47.81422043		theme_park.dungeon.generic_death			1800	 int:ai.defaultCalmBehavior=2						1.5	1
narglatch_cub		r2	51.91511154	-67.74233246	-47.81422043		theme_park.dungeon.generic_death			1800	 int:ai.defaultCalmBehavior=2						1.5	1
narglatch_cub		r2	51.91511154	-67.74233246	-47.81422043		theme_park.dungeon.generic_death			1800	 int:ai.defaultCalmBehavior=2						1.5	1
narglatch_female		r2	51.17273712	-67.4890213	-44.91736984		theme_park.dungeon.generic_death			1800	 int:ai.defaultCalmBehavior=1						1.5	1
narglatch_cub		r3	83.48194122	-62.14448166	-12.99097443		theme_park.dungeon.generic_death			1800	 int:ai.defaultCalmBehavior=2						1.5	1
narglatch_cub		r3	83.48194122	-62.14448166	-12.99097443		theme_park.dungeon.generic_death			1800	 int:ai.defaultCalmBehavior=2						1.5	1
narglatch_cub		r3	83.48194122	-62.14448166	-12.99097443		theme_park.dungeon.generic_death			1800	 int:ai.defaultCalmBehavior=2						1.5	1
narglatch_cub		r3	83.48194122	-62.14448166	-12.99097443		theme_park.dungeon.generic_death			1800	 int:ai.defaultCalmBehavior=2						1.5	1
narglatch_female		r3	80.0613327	-62.71062088	-16.37899399		theme_park.dungeon.generic_death			1800	 int:ai.defaultCalmBehavior=1						1.5	1
narglatch		r4	80.74395752	-75.74803162	-59.39850235		theme_park.dungeon.generic_death			1800	 int:ai.defaultCalmBehavior=2						1.5	1
narglatch		r4	80.74395752	-75.74803162	-59.39850235		theme_park.dungeon.generic_death			1800	 int:ai.defaultCalmBehavior=2						1.5	1
narglatch		r4	80.74395752	-75.74803162	-59.39850235		theme_park.dungeon.generic_death			1800	 int:ai.defaultCalmBehavior=2						1.5	1
narglatch		r4	74.65522003	-77.06774139	-88.58092499		theme_park.dungeon.generic_death			1800	 int:ai.defaultCalmBehavior=1						1.5	1
narglatch_female		r4	72.2150116	-77.38072968	-90.51839447		theme_park.dungeon.generic_death			1800	 int:ai.defaultCalmBehavior=1						1.5	1
narglatch_female		r5	87.55325317	-46.76265717	-108.9346085		theme_park.dungeon.generic_death			1800	 int:ai.defaultCalmBehavior=2						1.5	1
narglatch_female		r5	87.55325317	-46.76265717	-108.9346085		theme_park.dungeon.generic_death			1800	 int:ai.defaultCalmBehavior=2						1.5	1
narglatch		r6	54.45043182	-72.75112152	-110.1914673		theme_park.dungeon.generic_death			1800	 int:ai.defaultCalmBehavior=2						1.5	1
narglatch		r6	54.45043182	-72.75112152	-110.1914673		theme_park.dungeon.generic_death			1800	 int:ai.defaultCalmBehavior=2						1.5	1
narglatch		r6	54.45043182	-72.75112152	-110.1914673		theme_park.dungeon.generic_death			1800	 int:ai.defaultCalmBehavior=2						1.5	1
narglatch_cub		r7	85.43058777	-66.57073212	-138.5465393		theme_park.dungeon.generic_death			1800	 int:ai.defaultCalmBehavior=2						1.5	1
narglatch_cub		r7	85.43058777	-66.57073212	-138.5465393		theme_park.dungeon.generic_death			1800	 int:ai.defaultCalmBehavior=2						1.5	1
narglatch_cub		r7	85.43058777	-66.57073212	-138.5465393		theme_park.dungeon.generic_death			1800	 int:ai.defaultCalmBehavior=2						1.5	1
narglatch_cub		r7	85.43058777	-66.57073212	-138.5465393		theme_park.dungeon.generic_death			1800	 int:ai.defaultCalmBehavior=2						1.5	1
narglatch_female		r7	82.63412476	-66.10686493	-136.7633972		theme_park.dungeon.generic_death			1800	 int:ai.defaultCalmBehavior=2						1.5	1
narglatch		r8	105.8970032	-66.17961884	-107.868042		theme_park.dungeon.generic_death			1800	 int:ai.defaultCalmBehavior=2						1.5	1
narglatch		r8	105.8970032	-66.17961884	-107.868042		theme_park.dungeon.generic_death			1800	 int:ai.defaultCalmBehavior=2						1.5	1
narglatch		r8	105.8970032	-66.17961884	-107.868042		theme_park.dungeon.generic_death			1800	 int:ai.defaultCalmBehavior=2						1.5	1
narglatch		r8	105.8970032	-66.17961884	-107.868042		theme_park.dungeon.generic_death			1800	 int:ai.defaultCalmBehavior=2						1.5	1
narglatch_female		r8	135.5626221	-66.12140656	-119.1282578		theme_park.dungeon.generic_death			1800	 int:ai.defaultCalmBehavior=2						1.5	1
narglatch_female		r8	135.5626221	-66.12140656	-119.1282578		theme_park.dungeon.generic_death			1800	 int:ai.defaultCalmBehavior=2						1.5	1
narglatch_female		r8	124.4222565	-66.78386688	-86.92588806		theme_park.dungeon.generic_death			1800	 int:ai.defaultCalmBehavior=2						1.5	1
narglatch_female		r8	124.4222565	-66.78386688	-86.92588806		theme_park.dungeon.generic_death			1800	 int:ai.defaultCalmBehavior=2						1.5	1
narglatch		r8	155.8711395	-66.43106079	-97.37794495		theme_park.dungeon.generic_death			1800	 int:ai.defaultCalmBehavior=2						1.5	1
narglatch		r8	155.8711395	-66.43106079	-97.37794495		theme_park.dungeon.generic_death			1800	 int:ai.defaultCalmBehavior=2						1.5	1
narglatch		r8	155.8711395	-66.43106079	-97.37794495		theme_park.dungeon.generic_death			1800	 int:ai.defaultCalmBehavior=2						1.5	1
narglatch		r8	155.8711395	-66.43106079	-97.37794495		theme_park.dungeon.generic_death			1800	 int:ai.defaultCalmBehavior=2						1.5	1
narglatch_matriarch		r9	190.2190094	-66.56084442	-101.4050522		theme_park.dungeon.generic_death			7200	 int:ai.defaultCalmBehavior=1						1.5	1
narglatch_cub		r9	188.455368	-65.8073349	-106.3896179		theme_park.dungeon.generic_death			1800	 int:ai.defaultCalmBehavior=2						1.5	1
narglatch_cub		r9	188.455368	-65.8073349	-106.3896179		theme_park.dungeon.generic_death			1800	 int:ai.defaultCalmBehavior=2						1.5	1
narglatch_cub		r9	188.455368	-65.8073349	-106.3896179		theme_park.dungeon.generic_death			1800	 int:ai.defaultCalmBehavior=2						1.5	1
narglatch_cub		r9	188.455368	-65.8073349	-106.3896179		theme_park.dungeon.generic_death			1800	 int:ai.defaultCalmBehavior=2						1.5	1
narglatch		r9	188.4327087	-65.81268311	-96.03523254		theme_park.dungeon.generic_death			1800	 int:ai.defaultCalmBehavior=1						1.5	1
narglatch_guardian		r10	51.52198029	-51.32757187	-83.25032806		theme_park.dungeon.generic_death			1800	 int:ai.defaultCalmBehavior=2						1.5	1
narglatch_guardian		r10	51.52198029	-51.32757187	-83.25032806		theme_park.dungeon.generic_death			1800	 int:ai.defaultCalmBehavior=2						1.5	1
narglatch_guardian		r10	51.52198029	-51.32757187	-83.25032806		theme_park.dungeon.generic_death			1800	 int:ai.defaultCalmBehavior=2						1.5	1
narglatch_cub		r10	59.55907822	-48.01171875	-106.8303757		theme_park.dungeon.generic_death			1800	 int:ai.defaultCalmBehavior=2						1.5	1
narglatch_cub		r10	59.55907822	-48.01171875	-106.8303757		theme_park.dungeon.generic_death			1800	 int:ai.defaultCalmBehavior=2						1.5	1
narglatch_cub		r10	59.55907822	-48.01171875	-106.8303757		theme_park.dungeon.generic_death			1800	 int:ai.defaultCalmBehavior=2						1.5	1
narglatch_cub		r10	59.55907822	-48.01171875	-106.8303757		theme_park.dungeon.generic_death			1800	 int:ai.defaultCalmBehavior=2						1.5	1
narglatch_female		r11	78.08746338	-46.57048798	-143.6131134		theme_park.dungeon.generic_death			1800	 int:ai.defaultCalmBehavior=1						1.5	1
narglatch		r11	82.95011139	-46.30831528	-141.905365		theme_park.dungeon.generic_death			1800	 int:ai.defaultCalmBehavior=2						1.5	1
narglatch		r11	82.95011139	-46.30831528	-141.905365		theme_park.dungeon.generic_death			1800	 int:ai.defaultCalmBehavior=2						1.5	1
narglatch_cub		r11	77.87824249	-46.45675659	-138.4697113		theme_park.dungeon.generic_death			1800	 int:ai.defaultCalmBehavior=2						1.5	1
narglatch_cub		r11	77.87824249	-46.45675659	-138.4697113		theme_park.dungeon.generic_death			1800	 int:ai.defaultCalmBehavior=2						1.5	1
