spawns	name	required_config	room	loc_x	loc_y	loc_z	yaw	script	mood	animation_mood	respawn_time	spawn_objvar	special_room	special_room_script	room_objvar	room_objvar_name	room_objvar_value	radius	planet_level
s	s	s[none]	s	f	f	f	f	s	s	s	i	s	s	s	s	s	s	f	i[0]
jinda_warrior			r1	0.809123993	-12.42461586	-15.83277893		theme_park.dungeon.generic_death			600	int:ai.defaultCalmBehavior=2						1.5	1
jinda_warrior			r1	0.809123993	-12.42461586	-15.83277893		theme_park.dungeon.generic_death			600	int:ai.defaultCalmBehavior=2						1.5	1
jinda_warrior			r2	-8.452045441	-22.15662384	-43.39874649		theme_park.dungeon.generic_death			600	int:ai.defaultCalmBehavior=2						1.5	1
jinda_warrior			r2	-8.452045441	-22.15662384	-43.39874649		theme_park.dungeon.generic_death			600	int:ai.defaultCalmBehavior=2						1.5	1
jinda_warrior			r2	-10.84913254	-22.39856911	-48.23410797		theme_park.dungeon.generic_death			600	int:ai.defaultCalmBehavior=2						1.5	1
jinda_warrior			r2	-10.84913254	-22.39856911	-48.23410797		theme_park.dungeon.generic_death			600	int:ai.defaultCalmBehavior=2						1.5	1
jinda_worker			r2	-29.17006111	-21.04795456	-23.00162506		theme_park.dungeon.generic_death			600	int:ai.defaultCalmBehavior=2						1.5	1
jinda_worker			r2	-29.17006111	-21.04795456	-23.00162506		theme_park.dungeon.generic_death			600	int:ai.defaultCalmBehavior=2						1.5	1
jinda_worker			r2	-29.17006111	-21.04795456	-23.00162506		theme_park.dungeon.generic_death			600	int:ai.defaultCalmBehavior=2						1.5	1
jinda_cub			r2	-39.98540497	-23.98995018	-25.94406128		theme_park.dungeon.generic_death			1800	int:ai.defaultCalmBehavior=2						1.5	1
jinda_cub			r2	-39.98540497	-23.98995018	-25.94406128		theme_park.dungeon.generic_death			1800	int:ai.defaultCalmBehavior=2						1.5	1
jinda_cub			r2	-39.98540497	-23.98995018	-25.94406128		theme_park.dungeon.generic_death			1800	int:ai.defaultCalmBehavior=2						1.5	1
jinda_elder			r2	-38.57614136	-23.91289711	-23.03240585		theme_park.dungeon.generic_death			600	int:ai.defaultCalmBehavior=2						1.5	1
jinda_elder			r2	-38.57614136	-23.91289711	-23.03240585		theme_park.dungeon.generic_death			600	int:ai.defaultCalmBehavior=2						1.5	1
jinda_worker			r4	-55.77553177	-33.90518951	-20.39891243		theme_park.dungeon.generic_death			600	int:ai.defaultCalmBehavior=2						1.5	1
jinda_worker			r4	-55.77553177	-33.90518951	-20.39891243		theme_park.dungeon.generic_death			600	int:ai.defaultCalmBehavior=2						1.5	1
jinda_worker			r4	-55.77553177	-33.90518951	-20.39891243		theme_park.dungeon.generic_death			600	int:ai.defaultCalmBehavior=2						1.5	1
jinda_worker			r4	-67.35578918	-37.50091553	-14.31650734		theme_park.dungeon.generic_death			600	int:ai.defaultCalmBehavior=2						1.5	1
jinda_worker			r4	-67.35578918	-37.50091553	-14.31650734		theme_park.dungeon.generic_death			600	int:ai.defaultCalmBehavior=2						1.5	1
jinda_worker			r4	-67.35578918	-37.50091553	-14.31650734		theme_park.dungeon.generic_death			600	int:ai.defaultCalmBehavior=2						1.5	1
jinda_tribesman			r4	-68.43659973	-38.56762695	-28.47276688		theme_park.dungeon.generic_death			600	int:ai.defaultCalmBehavior=2						1.5	1
jinda_tribesman			r4	-68.43659973	-38.56762695	-28.47276688		theme_park.dungeon.generic_death			600	int:ai.defaultCalmBehavior=2						1.5	1
jinda_tribesman			r4	-68.43659973	-38.56762695	-28.47276688		theme_park.dungeon.generic_death			600	int:ai.defaultCalmBehavior=2						1.5	1
jinda_matriarch			r5	-65.37612915	-38.9422493	-72.43347168		theme_park.dungeon.generic_death			900	int:ai.defaultCalmBehavior=2						1.5	1
jinda_tribesman			r5	-71.58452606	-38.51559067	-57.6395607		theme_park.dungeon.generic_death			600	int:ai.defaultCalmBehavior=2						1.5	1
jinda_tribesman			r5	-71.58452606	-38.51559067	-57.6395607		theme_park.dungeon.generic_death			600	int:ai.defaultCalmBehavior=2						1.5	1
jinda_tribesman			r5	-71.58452606	-38.51559067	-57.6395607		theme_park.dungeon.generic_death			600	int:ai.defaultCalmBehavior=2						1.5	1
jinda_cub			r5	-80.4977417	-39.12580872	-54.28777313		theme_park.dungeon.generic_death			1800	int:ai.defaultCalmBehavior=2						1.5	1
jinda_cub			r5	-80.4977417	-39.12580872	-54.28777313		theme_park.dungeon.generic_death			1800	int:ai.defaultCalmBehavior=2						1.5	1
jinda_cub			r5	-80.4977417	-39.12580872	-54.28777313		theme_park.dungeon.generic_death			1800	int:ai.defaultCalmBehavior=2						1.5	1
jinda_cub			r5	-80.4977417	-39.12580872	-54.28777313		theme_park.dungeon.generic_death			1800	int:ai.defaultCalmBehavior=2						1.5	1
jinda_cub			r5	-80.4977417	-39.12580872	-54.28777313		theme_park.dungeon.generic_death			1800	int:ai.defaultCalmBehavior=2						1.5	1
jinda_shaman			r5	-74.3144455	-39.31058884	-72.01084137		theme_park.dungeon.generic_death			900	int:ai.defaultCalmBehavior=2						1.5	1
jinda_cub			r5	-78.27577972	-39.1926918	-66.94897461		theme_park.dungeon.generic_death			1800	int:ai.defaultCalmBehavior=2						1.5	1
jinda_cub			r5	-78.27577972	-39.1926918	-66.94897461		theme_park.dungeon.generic_death			1800	int:ai.defaultCalmBehavior=2						1.5	1
jinda_cub			r5	-78.27577972	-39.1926918	-66.94897461		theme_park.dungeon.generic_death			1800	int:ai.defaultCalmBehavior=2						1.5	1
jinda_cub			r5	-78.27577972	-39.1926918	-66.94897461		theme_park.dungeon.generic_death			1800	int:ai.defaultCalmBehavior=2						1.5	1
jinda_cub			r5	-78.27577972	-39.1926918	-66.94897461		theme_park.dungeon.generic_death			1800	int:ai.defaultCalmBehavior=2						1.5	1
weathered_jinda_shaman			r5	-79.07015991	-22.5826149	-40.14764786		theme_park.dungeon.generic_death			600	int:ai.defaultCalmBehavior=2						1.5	1
jinda_warrior			r5	-65.31842041	-23.04351425	-51.73814392		theme_park.dungeon.generic_death			600	int:ai.defaultCalmBehavior=2						1.5	1
jinda_warrior			r5	-65.31842041	-23.04351425	-51.73814392		theme_park.dungeon.generic_death			600	int:ai.defaultCalmBehavior=2						1.5	1
masterful_jinda_warrior			r5	-68.14671326	-23.44261169	-58.63593292		theme_park.dungeon.generic_death			600	int:ai.defaultCalmBehavior=2						1.5	1
seasoned_jinda_warrior			r5	-66.7219696	-22.68877602	-66.70167542		theme_park.dungeon.generic_death			600	int:ai.defaultCalmBehavior=2						1.5	1
seasoned_jinda_warrior			r5	-66.7219696	-22.68877602	-66.70167542		theme_park.dungeon.generic_death			600	int:ai.defaultCalmBehavior=2						1.5	1
jinda_veteran			r5	-64.50037384	-23.32599449	-60.69718933		theme_park.dungeon.generic_death			600	int:ai.defaultCalmBehavior=2						1.5	1
jinda_tribesman			r6	-125.9495468	-41.526474	-61.42628098		theme_park.dungeon.generic_death			600	int:ai.defaultCalmBehavior=2						1.5	1
jinda_tribesman			r6	-125.9495468	-41.526474	-61.42628098		theme_park.dungeon.generic_death			600	int:ai.defaultCalmBehavior=2						1.5	1
jinda_tribesman			r6	-125.9495468	-41.526474	-61.42628098		theme_park.dungeon.generic_death			600	int:ai.defaultCalmBehavior=2						1.5	1
seasoned_jinda_warrior			r6	-109.5392914	-26.75191498	-64.71244049		theme_park.dungeon.generic_death			600	int:ai.defaultCalmBehavior=2						1.5	1
seasoned_jinda_warrior			r6	-109.5392914	-26.75191498	-64.71244049		theme_park.dungeon.generic_death			600	int:ai.defaultCalmBehavior=2						1.5	1
jinda_worker			r8	-165.265564	-41.98703766	-40.85454559		theme_park.dungeon.generic_death			600	int:ai.defaultCalmBehavior=2						1.5	1
jinda_worker			r8	-165.265564	-41.98703766	-40.85454559		theme_park.dungeon.generic_death			600	int:ai.defaultCalmBehavior=2						1.5	1
jinda_worker			r8	-165.265564	-41.98703766	-40.85454559		theme_park.dungeon.generic_death			600	int:ai.defaultCalmBehavior=2						1.5	1
masterful_jinda_warrior			r9	-112.6306686	-45.9201088	-112.7570801		theme_park.dungeon.generic_death			600	int:ai.defaultCalmBehavior=2						1.5	1
masterful_jinda_warrior			r9	-112.6306686	-45.9201088	-112.7570801		theme_park.dungeon.generic_death			600	int:ai.defaultCalmBehavior=2						1.5	1
skilled_jinda_worker			r9	-72.76152802	-62.65438461	-109.9659348		theme_park.dungeon.generic_death			600	int:ai.defaultCalmBehavior=2						1.5	1
skilled_jinda_worker			r9	-72.76152802	-62.65438461	-109.9659348		theme_park.dungeon.generic_death			600	int:ai.defaultCalmBehavior=2						1.5	1
skilled_jinda_worker			r9	-72.76152802	-62.65438461	-109.9659348		theme_park.dungeon.generic_death			600	int:ai.defaultCalmBehavior=2						1.5	1
jinda_matriarch			r9	-85.94801331	-64.13490295	-109.6056213		theme_park.dungeon.generic_death			600	int:ai.defaultCalmBehavior=2						1.5	1
masterful_jinda_warrior			r9	-91.48815918	-63.10956573	-118.8190231		theme_park.dungeon.generic_death			600	int:ai.defaultCalmBehavior=2						1.5	1
masterful_jinda_warrior			r9	-91.48815918	-63.10956573	-118.8190231		theme_park.dungeon.generic_death			600	int:ai.defaultCalmBehavior=2						1.5	1
masterful_jinda_warrior			r9	-91.48815918	-63.10956573	-118.8190231		theme_park.dungeon.generic_death			600	int:ai.defaultCalmBehavior=2						1.5	1
skilled_jinda_worker			r9	-109.2858353	-61.64499664	-108.8090515		theme_park.dungeon.generic_death			600	int:ai.defaultCalmBehavior=2						1.5	1
skilled_jinda_worker			r9	-109.2858353	-61.64499664	-108.8090515		theme_park.dungeon.generic_death			600	int:ai.defaultCalmBehavior=2						1.5	1
skilled_jinda_worker			r9	-109.2858353	-61.64499664	-108.8090515		theme_park.dungeon.generic_death			600	int:ai.defaultCalmBehavior=2						1.5	1
adept_jinda_shaman			r9	-108.8801956	-61.74144363	-115.5114288		theme_park.dungeon.generic_death			600	int:ai.defaultCalmBehavior=2						1.5	1
jinda_cub			r9	-94.64484406	-62.8003273	-106.8971481		theme_park.dungeon.generic_death			1800	int:ai.defaultCalmBehavior=2						1.5	1
jinda_cub			r9	-94.64484406	-62.8003273	-106.8971481		theme_park.dungeon.generic_death			1800	int:ai.defaultCalmBehavior=2						1.5	1
jinda_cub			r9	-94.64484406	-62.8003273	-106.8971481		theme_park.dungeon.generic_death			1800	int:ai.defaultCalmBehavior=2						1.5	1
jinda_cub			r9	-94.64484406	-62.8003273	-106.8971481		theme_park.dungeon.generic_death			1800	int:ai.defaultCalmBehavior=2						1.5	1
jinda_cub			r9	-94.64484406	-62.8003273	-106.8971481		theme_park.dungeon.generic_death			1800	int:ai.defaultCalmBehavior=2						1.5	1
jinda_veteran			r9	-85.36377716	-63.91966248	-119.467865		theme_park.dungeon.generic_death			600	int:ai.defaultCalmBehavior=2						1.5	1
jinda_worker			r10	-162.9891052	-41.51409531	-83.20786285		theme_park.dungeon.generic_death			600	int:ai.defaultCalmBehavior=2						1.5	1
jinda_worker			r10	-162.9891052	-41.51409531	-83.20786285		theme_park.dungeon.generic_death			600	int:ai.defaultCalmBehavior=2						1.5	1
jinda_worker			r10	-162.9891052	-41.51409531	-83.20786285		theme_park.dungeon.generic_death			600	int:ai.defaultCalmBehavior=2						1.5	1
jinda_cub			r10	-162.7907867	-41.82888031	-75.27259827		theme_park.dungeon.generic_death			1800	int:ai.defaultCalmBehavior=2						1.5	1
jinda_cub			r10	-162.7907867	-41.82888031	-75.27259827		theme_park.dungeon.generic_death			1800	int:ai.defaultCalmBehavior=2						1.5	1
jinda_cub			r10	-162.7907867	-41.82888031	-75.27259827		theme_park.dungeon.generic_death			1800	int:ai.defaultCalmBehavior=2						1.5	1
jinda_cub			r10	-162.7907867	-41.82888031	-75.27259827		theme_park.dungeon.generic_death			1800	int:ai.defaultCalmBehavior=2						1.5	1
jinda_cub			r10	-162.7907867	-41.82888031	-75.27259827		theme_park.dungeon.generic_death			1800	int:ai.defaultCalmBehavior=2						1.5	1
jinda_elder			r10	-162.9636841	-41.5541687	-67.46855927		theme_park.dungeon.generic_death			600	int:ai.defaultCalmBehavior=2						1.5	1
jinda_elder			r10	-162.9636841	-41.5541687	-67.46855927		theme_park.dungeon.generic_death			600	int:ai.defaultCalmBehavior=2						1.5	1
jinda_tribesman			r10	-174.3609009	-41.8296051	-87.03097534		theme_park.dungeon.generic_death			600	int:ai.defaultCalmBehavior=2						1.5	1
jinda_tribesman			r10	-174.3609009	-41.8296051	-87.03097534		theme_park.dungeon.generic_death			600	int:ai.defaultCalmBehavior=2						1.5	1
jinda_tribesman			r10	-174.3609009	-41.8296051	-87.03097534		theme_park.dungeon.generic_death			600	int:ai.defaultCalmBehavior=2						1.5	1
jinda_elder			r10	-173.0735016	-41.32269669	-75.20580292		theme_park.dungeon.generic_death			600	int:ai.defaultCalmBehavior=2						1.5	1
jinda_elder			r10	-173.0735016	-41.32269669	-75.20580292		theme_park.dungeon.generic_death			600	int:ai.defaultCalmBehavior=2						1.5	1
jinda_elder			r10	-173.0735016	-41.32269669	-75.20580292		theme_park.dungeon.generic_death			600	int:ai.defaultCalmBehavior=2						1.5	1
jinda_cub			r10	-172.6391296	-41.65356064	-69.63565826		theme_park.dungeon.generic_death			1800	int:ai.defaultCalmBehavior=2						1.5	1
jinda_cub			r10	-172.6391296	-41.65356064	-69.63565826		theme_park.dungeon.generic_death			1800	int:ai.defaultCalmBehavior=2						1.5	1
jinda_cub			r10	-172.6391296	-41.65356064	-69.63565826		theme_park.dungeon.generic_death			1800	int:ai.defaultCalmBehavior=2						1.5	1
jinda_warrior			r10	-172.6169586	-42.06068039	-63.33608246		theme_park.dungeon.generic_death			600	int:ai.defaultCalmBehavior=2						1.5	1
jinda_warrior			r10	-172.6169586	-42.06068039	-63.33608246		theme_park.dungeon.generic_death			600	int:ai.defaultCalmBehavior=2						1.5	1
skilled_jinda_worker			r11	-138.5621338	-45.7622757	-82.30561829		theme_park.dungeon.generic_death			600	int:ai.defaultCalmBehavior=2						1.5	1
skilled_jinda_worker			r11	-138.5621338	-45.7622757	-82.30561829		theme_park.dungeon.generic_death			600	int:ai.defaultCalmBehavior=2						1.5	1
skilled_jinda_worker			r11	-138.5621338	-45.7622757	-82.30561829		theme_park.dungeon.generic_death			600	int:ai.defaultCalmBehavior=2						1.5	1
jinda_worker			r11	-112.0197449	-46.74371338	-86.64264679		theme_park.dungeon.generic_death			600	int:ai.defaultCalmBehavior=2						1.5	1
jinda_worker			r11	-112.0197449	-46.74371338	-86.64264679		theme_park.dungeon.generic_death			600	int:ai.defaultCalmBehavior=2						1.5	1
jinda_worker			r11	-112.0197449	-46.74371338	-86.64264679		theme_park.dungeon.generic_death			600	int:ai.defaultCalmBehavior=2						1.5	1
jinda_elder_worker			r11	-98.84955597	-47.00524902	-83.68832397		theme_park.dungeon.generic_death			600	int:ai.defaultCalmBehavior=2						1.5	1
jinda_elder_worker			r11	-98.84955597	-47.00524902	-83.68832397		theme_park.dungeon.generic_death			600	int:ai.defaultCalmBehavior=2						1.5	1
jinda_elder_worker			r11	-98.84955597	-47.00524902	-83.68832397		theme_park.dungeon.generic_death			600	int:ai.defaultCalmBehavior=2						1.5	1
seasoned_jinda_warrior			r11	-97.82330322	-30.93231201	-88.93592072		theme_park.dungeon.generic_death			600	int:ai.defaultCalmBehavior=2						1.5	1
seasoned_jinda_warrior			r11	-97.82330322	-30.93231201	-88.93592072		theme_park.dungeon.generic_death			600	int:ai.defaultCalmBehavior=2						1.5	1
seasoned_jinda_warrior			r11	-102.9230804	-30.91439629	-91.03900909		theme_park.dungeon.generic_death			600	int:ai.defaultCalmBehavior=2						1.5	1
seasoned_jinda_warrior			r11	-102.9230804	-30.91439629	-91.03900909		theme_park.dungeon.generic_death			600	int:ai.defaultCalmBehavior=2						1.5	1
seasoned_jinda_warrior			r16	-110.703392	-49.69736862	-34.43941116		theme_park.dungeon.generic_death			600	int:ai.defaultCalmBehavior=2						1.5	1
seasoned_jinda_warrior			r16	-110.703392	-49.69736862	-34.43941116		theme_park.dungeon.generic_death			600	int:ai.defaultCalmBehavior=2						1.5	1
jinda_veteran			r16	-107.3122025	-50.06396103	-27.89081383		theme_park.dungeon.generic_death			600	int:ai.defaultCalmBehavior=2						1.5	1
jinda_warrior			r16	-115.7995071	-50.02858734	-27.54343605		theme_park.dungeon.generic_death			600	int:ai.defaultCalmBehavior=2						1.5	1
jinda_warrior			r16	-115.7995071	-50.02858734	-27.54343605		theme_park.dungeon.generic_death			600	int:ai.defaultCalmBehavior=2						1.5	1
seasoned_jinda_warrior			r16	-102.866745	-33.98999023	-36.5546608		theme_park.dungeon.generic_death			600	int:ai.defaultCalmBehavior=2						1.5	1
seasoned_jinda_warrior			r16	-102.866745	-33.98999023	-36.5546608		theme_park.dungeon.generic_death			600	int:ai.defaultCalmBehavior=2						1.5	1
seasoned_jinda_warrior			r17	-105.1394043	-34.34943771	-16.97545433		theme_park.dungeon.generic_death			600	int:ai.defaultCalmBehavior=2						1.5	1
seasoned_jinda_warrior			r17	-105.1394043	-34.34943771	-16.97545433		theme_park.dungeon.generic_death			600	int:ai.defaultCalmBehavior=2						1.5	1
jinda_worker			r19	15.35132217	-22.83234406	-49.09089661		theme_park.dungeon.generic_death			600	int:ai.defaultCalmBehavior=2						1.5	1
jinda_worker			r19	15.35132217	-22.83234406	-49.09089661		theme_park.dungeon.generic_death			600	int:ai.defaultCalmBehavior=2						1.5	1
jinda_worker			r19	15.35132217	-22.83234406	-49.09089661		theme_park.dungeon.generic_death			600	int:ai.defaultCalmBehavior=2						1.5	1
jinda_tribesman			r19	20.62878418	-17.45174599	-33.06688309		theme_park.dungeon.generic_death			600	int:ai.defaultCalmBehavior=2						1.5	1
jinda_tribesman			r19	20.62878418	-17.45174599	-33.06688309		theme_park.dungeon.generic_death			600	int:ai.defaultCalmBehavior=2						1.5	1
jinda_tribesman			r19	20.62878418	-17.45174599	-33.06688309		theme_park.dungeon.generic_death			600	int:ai.defaultCalmBehavior=2						1.5	1
jinda_elder_worker			r19	16.57846069	-14.0445118	-22.75237274		theme_park.dungeon.generic_death			600	int:ai.defaultCalmBehavior=2						1.5	1
jinda_elder_worker			r19	16.57846069	-14.0445118	-22.75237274		theme_park.dungeon.generic_death			600	int:ai.defaultCalmBehavior=2						1.5	1
jinda_elder_worker			r19	16.57846069	-14.0445118	-22.75237274		theme_park.dungeon.generic_death			600	int:ai.defaultCalmBehavior=2						1.5	1
jinda_warrior			r20	-7.86976099	-27.00054741	-80.75323486		theme_park.dungeon.generic_death			600	int:ai.defaultCalmBehavior=2						1.5	1
jinda_warrior			r20	-7.86976099	-27.00054741	-80.75323486		theme_park.dungeon.generic_death			600	int:ai.defaultCalmBehavior=2						1.5	1
jinda_worker			r20	-9.358854294	-26.83037376	-65.96105194		theme_park.dungeon.generic_death			600	int:ai.defaultCalmBehavior=2						1.5	1
jinda_worker			r20	-9.358854294	-26.83037376	-65.96105194		theme_park.dungeon.generic_death			600	int:ai.defaultCalmBehavior=2						1.5	1
jinda_worker			r20	-9.358854294	-26.83037376	-65.96105194		theme_park.dungeon.generic_death			600	int:ai.defaultCalmBehavior=2						1.5	1
jinda_tribesman			r20	-15.59102154	-26.82356644	-66.84967804		theme_park.dungeon.generic_death			600	int:ai.defaultCalmBehavior=2						1.5	1
jinda_tribesman			r20	-15.59102154	-26.82356644	-66.84967804		theme_park.dungeon.generic_death			600	int:ai.defaultCalmBehavior=2						1.5	1
jinda_tribesman			r20	-15.59102154	-26.82356644	-66.84967804		theme_park.dungeon.generic_death			600	int:ai.defaultCalmBehavior=2						1.5	1
skilled_jinda_worker			r21	-29.95231438	-27.5362606	-67.39543915		theme_park.dungeon.generic_death			600	int:ai.defaultCalmBehavior=2						1.5	1
skilled_jinda_worker			r21	-29.95231438	-27.5362606	-67.39543915		theme_park.dungeon.generic_death			600	int:ai.defaultCalmBehavior=2						1.5	1
skilled_jinda_worker			r21	-29.95231438	-27.5362606	-67.39543915		theme_park.dungeon.generic_death			600	int:ai.defaultCalmBehavior=2						1.5	1
jinda_elder			r21	-28.408638	-29.64953041	-77.39684296		theme_park.dungeon.generic_death			600	int:ai.defaultCalmBehavior=2						1.5	1
jinda_elder			r21	-28.408638	-29.64953041	-77.39684296		theme_park.dungeon.generic_death			600	int:ai.defaultCalmBehavior=2						1.5	1
hardened_jinda_warrior			r22	-7.607232094	-36.04735565	-96.61029816		theme_park.dungeon.generic_death			600	int:ai.defaultCalmBehavior=2						1.5	1
masterful_jinda_warrior			r22	-15.72572422	-36.02920532	-105.3504181		theme_park.dungeon.generic_death			600	int:ai.defaultCalmBehavior=2						1.5	1
masterful_jinda_warrior			r22	-15.72572422	-36.02920532	-105.3504181		theme_park.dungeon.generic_death			600	int:ai.defaultCalmBehavior=2						1.5	1
masterful_jinda_warrior			r22	-39.99702072	-36.79719543	-111.0039978		theme_park.dungeon.generic_death			600	int:ai.defaultCalmBehavior=2						1.5	1
masterful_jinda_warrior			r22	-39.99702072	-36.79719543	-111.0039978		theme_park.dungeon.generic_death			600	int:ai.defaultCalmBehavior=2						1.5	1
masterful_jinda_warrior			r22	-64.24639893	-44.83771133	-112.9818344		theme_park.dungeon.generic_death			600	int:ai.defaultCalmBehavior=2						1.5	1
masterful_jinda_warrior			r22	-64.24639893	-44.83771133	-112.9818344		theme_park.dungeon.generic_death			600	int:ai.defaultCalmBehavior=2						1.5	1
skilled_jinda_worker			r22	-31.72891045	-59.78320313	-114.3059158		theme_park.dungeon.generic_death			600	int:ai.defaultCalmBehavior=2						1.5	1
skilled_jinda_worker			r22	-31.72891045	-59.78320313	-114.3059158		theme_park.dungeon.generic_death			600	int:ai.defaultCalmBehavior=2						1.5	1
skilled_jinda_worker			r22	-31.72891045	-59.78320313	-114.3059158		theme_park.dungeon.generic_death			600	int:ai.defaultCalmBehavior=2						1.5	1
jinda_elder_worker			r22	-24.51841354	-59.94125366	-106.447319		theme_park.dungeon.generic_death			600	int:ai.defaultCalmBehavior=2						1.5	1
jinda_elder_worker			r22	-24.51841354	-59.94125366	-106.447319		theme_park.dungeon.generic_death			600	int:ai.defaultCalmBehavior=2						1.5	1
jinda_elder_worker			r22	-24.51841354	-59.94125366	-106.447319		theme_park.dungeon.generic_death			600	int:ai.defaultCalmBehavior=2						1.5	1
masterful_jinda_warrior			r27	-1.733785987	-59.84963226	-85.56103516		theme_park.dungeon.generic_death			600	int:ai.defaultCalmBehavior=2						1.5	1
masterful_jinda_warrior			r27	-1.733785987	-59.84963226	-85.56103516		theme_park.dungeon.generic_death			600	int:ai.defaultCalmBehavior=2						1.5	1
masterful_jinda_warrior			r27	-1.733785987	-59.84963226	-85.56103516		theme_park.dungeon.generic_death			600	int:ai.defaultCalmBehavior=2						1.5	1
masterful_jinda_warrior			r27	9.935202599	-61.11265564	-96.6268158		theme_park.dungeon.generic_death			600	int:ai.defaultCalmBehavior=2						1.5	1
masterful_jinda_warrior			r27	9.935202599	-61.11265564	-96.6268158		theme_park.dungeon.generic_death			600	int:ai.defaultCalmBehavior=2						1.5	1
masterful_jinda_warrior			r27	9.935202599	-61.11265564	-96.6268158		theme_park.dungeon.generic_death			600	int:ai.defaultCalmBehavior=2						1.5	1
masterful_jinda_warrior			r27	-0.315779001	-63.05592346	-107.41716		theme_park.dungeon.generic_death			600	int:ai.defaultCalmBehavior=2						1.5	1
masterful_jinda_warrior			r27	-0.315779001	-63.05592346	-107.41716		theme_park.dungeon.generic_death			600	int:ai.defaultCalmBehavior=2						1.5	1
masterful_jinda_warrior			r27	-0.315779001	-63.05592346	-107.41716		theme_park.dungeon.generic_death			600	int:ai.defaultCalmBehavior=2						1.5	1
jinda_chief			r28	37.52698898	-61.36741638	-114.297905		theme_park.dungeon.generic_death			1800	int:ai.defaultCalmBehavior=2						1.5	1
jinda_matriarch			r28	33.61262131	-61.28055191	-115.0255508		theme_park.dungeon.generic_death			1800	int:ai.defaultCalmBehavior=2						1.5	1
hardened_jinda_warrior			r28	41.98114777	-60.84033966	-100.9659119		theme_park.dungeon.generic_death			600	int:ai.defaultCalmBehavior=2						1.5	1
hardened_jinda_warrior			r28	28.46042633	-60.56179047	-100.1090012		theme_park.dungeon.generic_death			600	int:ai.defaultCalmBehavior=2						1.5	1
hardened_jinda_warrior			r28	50.5814743	-58.62384033	-77.80992889		theme_park.dungeon.generic_death			600	int:ai.defaultCalmBehavior=2						1.5	1
hardened_jinda_warrior			r28	50.17401886	-58.16300964	-90.74285889		theme_park.dungeon.generic_death			600	int:ai.defaultCalmBehavior=2						1.5	1
jinda_cub			r28	30.71968079	-61.20929337	-107.9629517		theme_park.dungeon.generic_death			1800	int:ai.defaultCalmBehavior=2						1.5	1
jinda_cub			r28	30.71968079	-61.20929337	-107.9629517		theme_park.dungeon.generic_death			1800	int:ai.defaultCalmBehavior=2						1.5	1
jinda_cub			r28	30.71968079	-61.20929337	-107.9629517		theme_park.dungeon.generic_death			1800	int:ai.defaultCalmBehavior=2						1.5	1
archaic_jinda_ritualist			r28	55.33778	-57.91133881	-87.27596283		theme_park.dungeon.generic_death			1200	int:ai.defaultCalmBehavior=2						1.5	1
jinda_veteran			r28	35.22785187	-59.00479507	-63.93395233		theme_park.dungeon.generic_death			600	int:ai.defaultCalmBehavior=2						1.5	1
jinda_veteran			r28	35.22785187	-59.00479507	-63.93395233		theme_park.dungeon.generic_death			600	int:ai.defaultCalmBehavior=2						1.5	1
jinda_veteran			r28	35.22785187	-59.00479507	-63.93395233		theme_park.dungeon.generic_death			600	int:ai.defaultCalmBehavior=2						1.5	1
jinda_loremaster			r29	-63.94599915	-58.2284584	-175.0805359		theme_park.dungeon.generic_death			1200	int:ai.defaultCalmBehavior=2						1.5	1
weathered_jinda_shaman			r29	-59.8924675	-57.80263901	-175.6921387		theme_park.dungeon.generic_death			600	int:ai.defaultCalmBehavior=2						1.5	1
weathered_jinda_shaman			r29	-68.24939728	-58.04868317	-175.9015503		theme_park.dungeon.generic_death			600	int:ai.defaultCalmBehavior=2						1.5	1
masterful_jinda_warrior			r29	-42.05729294	-58.19667816	-174.2032928		theme_park.dungeon.generic_death			600	int:ai.defaultCalmBehavior=2						1.5	1
masterful_jinda_warrior			r29	-42.05729294	-58.19667816	-174.2032928		theme_park.dungeon.generic_death			600	int:ai.defaultCalmBehavior=2						1.5	1
masterful_jinda_warrior			r29	-85.04962158	-58.37776184	-175.4937286		theme_park.dungeon.generic_death			600	int:ai.defaultCalmBehavior=2						1.5	1
masterful_jinda_warrior			r29	-85.04962158	-58.37776184	-175.4937286		theme_park.dungeon.generic_death			600	int:ai.defaultCalmBehavior=2						1.5	1
jinda_veteran			r30	-56.16274643	-58.00888443	-205.6799774		theme_park.dungeon.generic_death			600	int:ai.defaultCalmBehavior=2						1.5	1
jinda_veteran			r30	-52.83916473	-58.0567627	-205.6965027		theme_park.dungeon.generic_death			600	int:ai.defaultCalmBehavior=2						1.5	1
archaic_jinda_ritualist			r30	-61.90975189	-58.43403244	-236.0242615		theme_park.dungeon.generic_death			1200	int:ai.defaultCalmBehavior=2						1.5	1
wise_jinda_ritualist			r30	-52.82556534	-57.882061	-236.0635071		theme_park.dungeon.generic_death			600	int:ai.defaultCalmBehavior=2						1.5	1
wise_jinda_ritualist			r30	-56.54212189	-57.53009415	-229.8581848		theme_park.dungeon.generic_death			600	int:ai.defaultCalmBehavior=2						1.5	1
wise_jinda_ritualist			r30	-65.21200562	-57.07284546	-228.9607697		theme_park.dungeon.generic_death			600	int:ai.defaultCalmBehavior=2						1.5	1
