spawns	name	room	loc_x	loc_y	loc_z	yaw	script	mood	animation_mood	respawn_time	spawn_objvar	special_room	special_room_script	room_objvar	room_objvar_name	room_objvar_value	radius	planet_level
s	s	s	f	f	f	f	s	s	s	i	s	s	s	s	s	s	f	i[0]
savage_quenker		r1	-6.1	-9.8	-7.5	0	theme_park.dungeon.generic_death			600	 int:ai.defaultCalmBehavior=2						1.5	1
savage_quenker		r1	-2.8	11.4	-8.9	0	theme_park.dungeon.generic_death			600	 int:ai.defaultCalmBehavior=2						1.5	1
savage_quenker		r1	24.5	-27.9	-9.2	0	theme_park.dungeon.generic_death			600	 int:ai.defaultCalmBehavior=2						1.5	1
savage_quenker		r1	21.4	-25.4	-4.5	0	theme_park.dungeon.generic_death			600	 int:ai.defaultCalmBehavior=2						1.5	1
savage_quenker		r2	22.7	-38.9	-36.7	0	theme_park.dungeon.generic_death			600	 int:ai.defaultCalmBehavior=2						1.5	1
savage_quenker		r2	24.5	-39.1	-38.2	0	theme_park.dungeon.generic_death			600	 int:ai.defaultCalmBehavior=2						1.5	1
savage_quenker		r2	23.3	-42.3	-67.8	0	theme_park.dungeon.generic_death			600	 int:ai.defaultCalmBehavior=2						1.5	1
savage_quenker		r2	35.9	-45.1	-66.3	0	theme_park.dungeon.generic_death			600	 int:ai.defaultCalmBehavior=2						1.5	1
savage_quenker		r2	35.6	-45.4	-69.1	0	theme_park.dungeon.generic_death			600	 int:ai.defaultCalmBehavior=2						1.5	1
savage_quenker		r2	50.3	-47.7	-70.1	0	theme_park.dungeon.generic_death			600	 int:ai.defaultCalmBehavior=2						1.5	1
savage_quenker		r2	45.5	-47.6	-59.9	0	theme_park.dungeon.generic_death			600	 int:ai.defaultCalmBehavior=2						1.5	1
savage_quenker		r2	42.1	-47.7	-42.4	0	theme_park.dungeon.generic_death			600	 int:ai.defaultCalmBehavior=2						1.5	1
savage_quenker		r2	45.3	-47.6	-42.6	0	theme_park.dungeon.generic_death			600	 int:ai.defaultCalmBehavior=2						1.5	1
savage_quenker		r3	87.9	-62.1	-15.7	0	theme_park.dungeon.generic_death			600	 int:ai.defaultCalmBehavior=2						1.5	1
savage_quenker		r3	86.5	-62.1	-13	0	theme_park.dungeon.generic_death			600	 int:ai.defaultCalmBehavior=2						1.5	1
savage_quenker		r3	84.8	-61.6	-9.9	0	theme_park.dungeon.generic_death			600	 int:ai.defaultCalmBehavior=2						1.5	1
savage_quenker		r3	84	-61.3	-7	0	theme_park.dungeon.generic_death			600	 int:ai.defaultCalmBehavior=2						1.5	1
savage_quenker		r4	93.5	-75.7	-67.2	0	theme_park.dungeon.generic_death			600	 int:ai.defaultCalmBehavior=2						1.5	1
savage_quenker		r4	91	-76.2	-69.4	0	theme_park.dungeon.generic_death			600	 int:ai.defaultCalmBehavior=2						1.5	1
savage_quenker		r4	66.4	-76.7	-72.6	0	theme_park.dungeon.generic_death			600	 int:ai.defaultCalmBehavior=2						1.5	1
savage_quenker		r4	64.3	-76	-70.3	0	theme_park.dungeon.generic_death			600	 int:ai.defaultCalmBehavior=2						1.5	1
savage_quenker		r6	57.7	-77	-88.7	0	theme_park.dungeon.generic_death			600	 int:ai.defaultCalmBehavior=2						1.5	1
savage_quenker		r6	57.1	-76.8	-87.3	0	theme_park.dungeon.generic_death			600	 int:ai.defaultCalmBehavior=2						1.5	1
savage_quenker		r6	56.3	-76.2	-85.4	0	theme_park.dungeon.generic_death			600	 int:ai.defaultCalmBehavior=2						1.5	1
savage_quenker		r6	56.3	70.7	-119.1	0	theme_park.dungeon.generic_death			600	 int:ai.defaultCalmBehavior=2						1.5	1
savage_quenker		r5	97.2	-66.1	-109.1	0	theme_park.dungeon.generic_death			600	 int:ai.defaultCalmBehavior=2						1.5	1
savage_quenker		r8	109.5	-66.4	-107.5	0	theme_park.dungeon.generic_death			600	 int:ai.defaultCalmBehavior=2						1.5	1
savage_quenker		r8	114.3	-66.8	-96.1	0	theme_park.dungeon.generic_death			600	 int:ai.defaultCalmBehavior=2						1.5	1
savage_quenker		r8	123.3	-66.6	-104.7	0	theme_park.dungeon.generic_death			600	 int:ai.defaultCalmBehavior=2						1.5	1
savage_quenker		r8	123.8	-66.8	-106.6	0	theme_park.dungeon.generic_death			600	 int:ai.defaultCalmBehavior=2						1.5	1
savage_quenker		r8	123.5	-66.9	-108.6	0	theme_park.dungeon.generic_death			600	 int:ai.defaultCalmBehavior=2						1.5	1
savage_quenker		r8	124	-66.8	-110.7	0	theme_park.dungeon.generic_death			600	 int:ai.defaultCalmBehavior=2						1.5	1
savage_quenker		r8	116.1	-66.2	-125.8	0	theme_park.dungeon.generic_death			600	 int:ai.defaultCalmBehavior=2						1.5	1
savage_quenker		r8	136	-66.8	-127.7	0	theme_park.dungeon.generic_death			600	 int:ai.defaultCalmBehavior=2						1.5	1
savage_quenker		r8	136.7	-66.6	-122.4	0	theme_park.dungeon.generic_death			600	 int:ai.defaultCalmBehavior=2						1.5	1
savage_quenker		r8	133.1	-66.9	-85.6	0	theme_park.dungeon.generic_death			600	 int:ai.defaultCalmBehavior=2						1.5	1
savage_quenker		r9	189.8	-66.2	-97	0	theme_park.dungeon.generic_death			600	 int:ai.defaultCalmBehavior=2						1.5	1
savage_quenker		r9	190.5	-66.6	-102.8	0	theme_park.dungeon.generic_death			600	 int:ai.defaultCalmBehavior=2						1.5	1
savage_quenker		r9	188	-65.9	-104.8	0	theme_park.dungeon.generic_death			600	 int:ai.defaultCalmBehavior=2						1.5	1
savage_quenker		r10	54.8	-48.7	-105.9	0	theme_park.dungeon.generic_death			600	 int:ai.defaultCalmBehavior=2						1.5	1
savage_quenker		r10	49.5	-48.7	-103	0	theme_park.dungeon.generic_death			600	 int:ai.defaultCalmBehavior=2						1.5	1
drakka_judarrl	Drakka Judarrl	r11	73.7	-46.1	-141.4	104	npc.static_quest.quest_convo			1	string:quest_table=drakka_judarrl						0	0
