spawns	name	required_config	room	loc_x	loc_y	loc_z	yaw	script	mood	animation_mood	respawn_time	spawn_objvar	special_room	special_room_script	room_objvar	room_objvar_name	room_objvar_value	radius	planet_level
s	s	s[none]	s	f	f	f	f	s	s	s	i	s	s	s	s	s	s	f	i[0]
blood_razor_berzerker			mainhall	0.052568998	0.125265002	-0.086464003		theme_park.dungeon.generic_death			656	int:ai.defaultCalmBehavior=2						1.5	1
blood_razor_berzerker			mainhall	0.052568998	0.125265002	-0.086464003		theme_park.dungeon.generic_death			656	int:ai.defaultCalmBehavior=2						1.5	1
blood_razor_pirate_strong			room3	-3.714243889	0.125266001	-3.572144985		theme_park.dungeon.generic_death			645	int:ai.defaultCalmBehavior=1							1
