spawns	name	required_config	room	loc_x	loc_y	loc_z	yaw	script	mood	animation_mood	respawn_time	spawn_objvar	special_room	special_room_script	room_objvar	room_objvar_name	room_objvar_value	radius	planet_level
s	s	s[none]	s	f	f	f	f	s	s	s	i	s	s	s	s	s	s	f	i[0]
drall_patriot			r1	11.75816154	-22.13794136	-6.040215969		theme_park.dungeon.generic_death			500	int:ai.defaultCalmBehavior=2						1.5	1
drall_patriot			r1	11.75816154	-22.13794136	-6.040215969		theme_park.dungeon.generic_death			500	int:ai.defaultCalmBehavior=2						1.5	1
drall_patriot			r1	-16.19854736	-4.318724155	-7.04445982		theme_park.dungeon.generic_death			500	int:ai.defaultCalmBehavior=2						1.5	1
drall_patriot			r1	-16.19854736	-4.318724155	-7.04445982		theme_park.dungeon.generic_death			500	int:ai.defaultCalmBehavior=2						1.5	1
drall_patriot			r1	-16.19854736	-4.318724155	-7.04445982		theme_park.dungeon.generic_death			500	int:ai.defaultCalmBehavior=2						1.5	1
drall_patriot_legionnare			r2	53.44794083	-68.13524628	-41.25853729		theme_park.dungeon.generic_death			900	int:ai.defaultCalmBehavior=2						1.5	1
drall_patriot_footsoldier			r2	50.11120224	-48.83942413	-27.74205017		theme_park.dungeon.generic_death			700	int:ai.defaultCalmBehavior=2						1.5	1
drall_patriot_footsoldier			r2	50.11120224	-48.83942413	-27.74205017		theme_park.dungeon.generic_death			700	int:ai.defaultCalmBehavior=2						1.5	1
drall_patriot_footsoldier			r2	50.11120224	-48.83942413	-27.74205017		theme_park.dungeon.generic_death			700	int:ai.defaultCalmBehavior=2						1.5	1
drall_patriot_footsoldier			r2	50.15850067	-48.54911423	-65.19534302		theme_park.dungeon.generic_death			700	int:ai.defaultCalmBehavior=2						1.5	1
drall_patriot_footsoldier			r2	50.15850067	-48.54911423	-65.19534302		theme_park.dungeon.generic_death			700	int:ai.defaultCalmBehavior=2						1.5	1
drall_patriot			r2	47.63431549	-48.43854904	-61.92723083		theme_park.dungeon.generic_death			500	int:ai.defaultCalmBehavior=2						1.5	1
drall_patriot			r2	47.63431549	-48.43854904	-61.92723083		theme_park.dungeon.generic_death			500	int:ai.defaultCalmBehavior=2						1.5	1
drall_patriot			r2	21.61767578	-41.94026566	-62.63668823		theme_park.dungeon.generic_death			500	int:ai.defaultCalmBehavior=2						1.5	1
drall_patriot			r2	21.61767578	-41.94026566	-62.63668823		theme_park.dungeon.generic_death			500	int:ai.defaultCalmBehavior=2						1.5	1
drall_patriot			r2	21.61767578	-41.94026566	-62.63668823		theme_park.dungeon.generic_death			500	int:ai.defaultCalmBehavior=2						1.5	1
drall_patriot			r2	21.61767578	-41.94026566	-62.63668823		theme_park.dungeon.generic_death			500	int:ai.defaultCalmBehavior=2						1.5	1
drall_patriot			r2	24.1212101	-35.48244095	-22.28969193		theme_park.dungeon.generic_death			500	int:ai.defaultCalmBehavior=2						1.5	1
drall_patriot			r2	24.1212101	-35.48244095	-22.28969193		theme_park.dungeon.generic_death			500	int:ai.defaultCalmBehavior=2						1.5	1
drall_patriot			r2	24.1212101	-35.48244095	-22.28969193		theme_park.dungeon.generic_death			500	int:ai.defaultCalmBehavior=2						1.5	1
drall_patriot_footsoldier			r3	65.90479279	-68.75151825	-36.06091309		theme_park.dungeon.generic_death			700	int:ai.defaultCalmBehavior=2						1.5	1
drall_patriot_footsoldier			r3	65.90479279	-68.75151825	-36.06091309		theme_park.dungeon.generic_death			700	int:ai.defaultCalmBehavior=2						1.5	1
drall_patriot_footsoldier			r3	65.90479279	-68.75151825	-36.06091309		theme_park.dungeon.generic_death			700	int:ai.defaultCalmBehavior=2						1.5	1
drall_patriot_footsoldier			r3	90.35414886	-61.78759384	-11.77475357		theme_park.dungeon.generic_death			700	int:ai.defaultCalmBehavior=2						1.5	1
drall_patriot_footsoldier			r3	90.35414886	-61.78759384	-11.77475357		theme_park.dungeon.generic_death			700	int:ai.defaultCalmBehavior=2						1.5	1
drall_patriot_footsoldier			r3	90.35414886	-61.78759384	-11.77475357		theme_park.dungeon.generic_death			700	int:ai.defaultCalmBehavior=2						1.5	1
drall_patriot_footsoldier			r3	90.35414886	-61.78759384	-11.77475357		theme_park.dungeon.generic_death			700	int:ai.defaultCalmBehavior=2						1.5	1
drall_patriot_conqueror			r4	76.3976593	-76.83591461	-88.23523712		theme_park.dungeon.generic_death			1500	int:ai.defaultCalmBehavior=2						1.5	1
drall_patriot_legionnare			r4	62.82582474	-75.79237366	-71.15663147		theme_park.dungeon.generic_death			900	int:ai.defaultCalmBehavior=2						1.5	1
drall_patriot_legionnare			r4	62.82582474	-75.79237366	-71.15663147		theme_park.dungeon.generic_death			900	int:ai.defaultCalmBehavior=2						1.5	1
drall_patriot_legionnare			r4	94.64549255	-75.66093445	-68.44580078		theme_park.dungeon.generic_death			900	int:ai.defaultCalmBehavior=2						1.5	1
drall_patriot_legionnare			r4	94.64549255	-75.66093445	-68.44580078		theme_park.dungeon.generic_death			900	int:ai.defaultCalmBehavior=2						1.5	1
drall_patriot_legionnare			r4	78.8376236	-74.50799561	-54.27165985		theme_park.dungeon.generic_death			900	int:ai.defaultCalmBehavior=2						1.5	1
drall_patriot_legionnare			r4	78.8376236	-74.50799561	-54.27165985		theme_park.dungeon.generic_death			900	int:ai.defaultCalmBehavior=2						1.5	1
drall_patriot_legionnare			r5	91.11673737	-66.61696625	-118.2975769		theme_park.dungeon.generic_death			900	int:ai.defaultCalmBehavior=2						1.5	1
drall_patriot_legionnare			r5	91.11673737	-66.61696625	-118.2975769		theme_park.dungeon.generic_death			900	int:ai.defaultCalmBehavior=2						1.5	1
drall_patriot_footsoldier			r5	70.94819641	-46.4657135	-105.9996338		theme_park.dungeon.generic_death			700	int:ai.defaultCalmBehavior=2						1.5	1
drall_patriot_footsoldier			r5	70.94819641	-46.4657135	-105.9996338		theme_park.dungeon.generic_death			700	int:ai.defaultCalmBehavior=2						1.5	1
drall_patriot_legionnare			r5	71.07003021	-46.82688522	-109.1499557		theme_park.dungeon.generic_death			900	int:ai.defaultCalmBehavior=2						1.5	1
drall_patriot_footsoldier			r5	91.83992004	-46.73343277	-113.4523926		theme_park.dungeon.generic_death			700	int:ai.defaultCalmBehavior=2						1.5	1
drall_patriot_footsoldier			r5	91.83992004	-46.73343277	-113.4523926		theme_park.dungeon.generic_death			700	int:ai.defaultCalmBehavior=2						1.5	1
drall_patriot_legionnare			r5	94.07844543	-45.91736221	-107.110054		theme_park.dungeon.generic_death			900	int:ai.defaultCalmBehavior=2						1.5	1
drall_patriot_legionnare			r5	94.07844543	-45.91736221	-107.110054		theme_park.dungeon.generic_death			900	int:ai.defaultCalmBehavior=2						1.5	1
drall_patriot_legionnare			r6	63.10302353	-66.35295105	-137.4788818		theme_park.dungeon.generic_death			900	int:ai.defaultCalmBehavior=2						1.5	1
drall_patriot_legionnare			r6	63.10302353	-66.35295105	-137.4788818		theme_park.dungeon.generic_death			900	int:ai.defaultCalmBehavior=2						1.5	1
drall_patriot_legionnare			r6	63.10302353	-66.35295105	-137.4788818		theme_park.dungeon.generic_death			900	int:ai.defaultCalmBehavior=2						1.5	1
drall_patriot_legionnare			r6	63.10302353	-66.35295105	-137.4788818		theme_park.dungeon.generic_death			900	int:ai.defaultCalmBehavior=2						1.5	1
drall_patriot_legionnare			r6	52.35602951	-75.36284637	-101.4211731		theme_park.dungeon.generic_death			900	int:ai.defaultCalmBehavior=2						1.5	1
drall_patriot_legionnare			r6	52.35602951	-75.36284637	-101.4211731		theme_park.dungeon.generic_death			900	int:ai.defaultCalmBehavior=2						1.5	1
drall_patriot_legionnare			r6	52.35602951	-75.36284637	-101.4211731		theme_park.dungeon.generic_death			900	int:ai.defaultCalmBehavior=2						1.5	1
drall_patriot_legionnare			r8	148.7862854	-67.15763092	-120.1684418		theme_park.dungeon.generic_death			900	int:ai.defaultCalmBehavior=2						1.5	1
drall_patriot_legionnare			r8	148.7862854	-67.15763092	-120.1684418		theme_park.dungeon.generic_death			900	int:ai.defaultCalmBehavior=2						1.5	1
drall_patriot_legionnare			r8	148.7862854	-67.15763092	-120.1684418		theme_park.dungeon.generic_death			900	int:ai.defaultCalmBehavior=2						1.5	1
drall_patriot_conqueror			r8	134.5074005	-66.79486847	-93.84288788		theme_park.dungeon.generic_death			1500	int:ai.defaultCalmBehavior=2						1.5	1
drall_patriot_legionnare			r8	140.9901581	-67.09442139	-94.67472076		theme_park.dungeon.generic_death			900	int:ai.defaultCalmBehavior=2						1.5	1
drall_patriot_legionnare			r8	140.9901581	-67.09442139	-94.67472076		theme_park.dungeon.generic_death			900	int:ai.defaultCalmBehavior=2						1.5	1
drall_patriot_conqueror			r8	113.109108	-66.81480408	-96.15628815		theme_park.dungeon.generic_death			1500	int:ai.defaultCalmBehavior=2						1.5	1
drall_patriot_legionnare			r8	114.2306976	-66.68844604	-99.75939941		theme_park.dungeon.generic_death			900	int:ai.defaultCalmBehavior=2						1.5	1
drall_patriot_legionnare			r8	114.2306976	-66.68844604	-99.75939941		theme_park.dungeon.generic_death			900	int:ai.defaultCalmBehavior=2						1.5	1
drall_patriot_legionnare			r8	118.9582138	-65.7299118	-124.3460693		theme_park.dungeon.generic_death			900	int:ai.defaultCalmBehavior=2						1.5	1
drall_patriot_legionnare			r8	118.9582138	-65.7299118	-124.3460693		theme_park.dungeon.generic_death			900	int:ai.defaultCalmBehavior=2						1.5	1
drall_patriot_legionnare			r8	118.9582138	-65.7299118	-124.3460693		theme_park.dungeon.generic_death			900	int:ai.defaultCalmBehavior=2						1.5	1
drall_patriot_legionnare			r8	118.9582138	-65.7299118	-124.3460693		theme_park.dungeon.generic_death			900	int:ai.defaultCalmBehavior=2						1.5	1
drall_patriot_legionnare			r9	182.1013031	-65.7252655	-102.4148407		theme_park.dungeon.generic_death			900	int:ai.defaultCalmBehavior=2						1.5	1
drall_patriot_legionnare			r9	182.1013031	-65.7252655	-102.4148407		theme_park.dungeon.generic_death			900	int:ai.defaultCalmBehavior=2						1.5	1
drall_patriot_legionnare			r9	182.1013031	-65.7252655	-102.4148407		theme_park.dungeon.generic_death			900	int:ai.defaultCalmBehavior=2						1.5	1
drall_patriot_legionnare			r9	182.1013031	-65.7252655	-102.4148407		theme_park.dungeon.generic_death			900	int:ai.defaultCalmBehavior=2						1.5	1
drall_patriot_legionnare			r9	161.8816376	-66.8900528	-97.22399902		theme_park.dungeon.generic_death			900	int:ai.defaultCalmBehavior=2						1.5	1
drall_patriot_legionnare			r9	161.8816376	-66.8900528	-97.22399902		theme_park.dungeon.generic_death			900	int:ai.defaultCalmBehavior=2						1.5	1
drall_chieftain			r9	186.6	-66	-98.9		theme_park.dungeon.generic_death			1750	int:ai.defaultCalmBehavior=2						1.5	1
drall_patriot_footsoldier			r10	49.29872894	-51.84642792	-87.68206787		theme_park.dungeon.generic_death			700	int:ai.defaultCalmBehavior=2						1.5	1
drall_patriot_footsoldier			r10	49.29872894	-51.84642792	-87.68206787		theme_park.dungeon.generic_death			700	int:ai.defaultCalmBehavior=2						1.5	1
drall_patriot_conqueror			r11	85.39575958	-46.56785583	-141.2527008		theme_park.dungeon.generic_death			1500	int:ai.defaultCalmBehavior=2						1.5	1
drall_patriot_legionnare			r11	93.82714081	-46.14217758	-141.9086304		theme_park.dungeon.generic_death			900	int:ai.defaultCalmBehavior=2						1.5	1
drall_patriot_legionnare			r11	93.82714081	-46.14217758	-141.9086304		theme_park.dungeon.generic_death			900	int:ai.defaultCalmBehavior=2						1.5	1
drall_patriot_legionnare			r11	93.82714081	-46.14217758	-141.9086304		theme_park.dungeon.generic_death			900	int:ai.defaultCalmBehavior=2						1.5	1
