spawns	name	required_config	room	loc_x	loc_y	loc_z	yaw	script	mood	animation_mood	respawn_time	spawn_objvar	special_room	special_room_script	room_objvar	room_objvar_name	room_objvar_value	radius	planet_level
s	s	s[none]	s	f	f	f	f	s	s	s	i	s	s	s	s	s	s	f	i[0]
imperial_sergeant			mainhall	0.004779935	0.125265002	-0.905107141		theme_park.dungeon.generic_death			459								1
high_colonel			room3	-3.935827971	0.125266001	-3.754676104		theme_park.dungeon.generic_death			544								1
