spawns	name	required_config	room	loc_x	loc_y	loc_z	yaw	script	mood	animation_mood	respawn_time	spawn_objvar	special_room	special_room_script	room_objvar	room_objvar_name	room_objvar_value	radius	planet_level
s	s	s[none]	s	f	f	f	f	s	s	s	i	s	s	s	s	s	s	f	i[0]
assault_trooper			mainhall	0.016191639	0.125265002	0.885146379		theme_park.dungeon.generic_death			100								1
imperial_surface_marshal			room2	3.045597792	0.125266001	-3.968149662		theme_park.dungeon.generic_death			655								1
