spawns	name	required_config	room	loc_x	loc_y	loc_z	yaw	script	mood	animation_mood	respawn_time	spawn_objvar	special_room	special_room_script	room_objvar	room_objvar_name	room_objvar_value	radius	planet_level
s	s	s[none]	s	f	f	f	f	s	s	s	i	s	s	s	s	s	s	f	i[0]
imperial_trooper			mainhall	0.028634757	0.125265002	-0.806351304		theme_park.dungeon.generic_death			345	int:ai.defaultCalmBehavior=2						1.5	1
imperial_trooper			mainhall	0.028634757	0.125265002	-0.806351304		theme_park.dungeon.generic_death			345	int:ai.defaultCalmBehavior=2						1.5	1
