spawns	name	required_config	room	loc_x	loc_y	loc_z	yaw	script	mood	animation_mood	respawn_time	spawn_objvar	special_room	special_room_script	room_objvar	room_objvar_name	room_objvar_value	radius	planet_level
s	s	s[none]	s	f	f	f	f	s	s	s	i	s	s	s	s	s	s	f	i[0]
lord_nyax_minion			hall1	3.756669044	0.25	-0.659711003		theme_park.dungeon.generic_death			360	int:ai.defaultCalmBehavior=2						1.5	1
lord_nyax_disciple			hall2	-3.744965076	0.25	-4.159133911		theme_park.dungeon.generic_death			360	int:ai.defaultCalmBehavior=2						1.5	1
lord_nyax_disciple			hall2	-3.744965076	0.25	-4.159133911		theme_park.dungeon.generic_death			360	int:ai.defaultCalmBehavior=2						1.5	1
lord_nyax_zealot			room1	2.56366396	-6.75	-0.645339012		theme_park.dungeon.generic_death			960	int:ai.defaultCalmBehavior=2						1.5	1
lord_nyax_zealot			room1	2.56366396	-6.75	-0.645339012		theme_park.dungeon.generic_death			960	int:ai.defaultCalmBehavior=2						1.5	1
lord_nyax_fanatic			room1	5.440080166	-6.759459972	-8.694626808		theme_park.dungeon.generic_death			360	int:ai.defaultCalmBehavior=2						1.5	1
lord_nyax_fanatic			room1	5.440080166	-6.759459972	-8.694626808		theme_park.dungeon.generic_death			360	int:ai.defaultCalmBehavior=2						1.5	1
lord_nyax_zealot			room2	-1.54163599	-13.74999046	-11.79533195		theme_park.dungeon.generic_death			960	int:ai.defaultCalmBehavior=2						1.5	1
lord_nyax_zealot			room2	-1.54163599	-13.74999046	-11.79533195		theme_park.dungeon.generic_death			960	int:ai.defaultCalmBehavior=2						1.5	1
lord_nyax_disciple			room2	-1.185261011	-13.7499218	4.704513073		theme_park.dungeon.generic_death			360	int:ai.defaultCalmBehavior=2						1.5	1
lord_nyax_disciple			room2	-1.185261011	-13.7499218	4.704513073		theme_park.dungeon.generic_death			360	int:ai.defaultCalmBehavior=2						1.5	1
lord_nyax_zealot			hallway	6.158247948	-13.75841522	11.79889107		theme_park.dungeon.generic_death			960	int:ai.defaultCalmBehavior=2						1.5	1
lord_nyax_zealot			hallway	6.158247948	-13.75841522	11.79889107		theme_park.dungeon.generic_death			960	int:ai.defaultCalmBehavior=2						1.5	1
lord_nyax_fiend			hallway	-4.68475008	-13.75841522	12.10363674		theme_park.dungeon.generic_death			960	int:ai.defaultCalmBehavior=2						1.5	1
lord_nyax_fiend			foyer	15.80609417	-13.75841522	1.397524953		theme_park.dungeon.generic_death			3600	int:ai.defaultCalmBehavior=2						1.5	1
lord_nyax_fiend			foyer	15.80609417	-13.75841522	1.397524953		theme_park.dungeon.generic_death			3600	int:ai.defaultCalmBehavior=2						1.5	1
lord_nyax_fiend			foyer	15.23939991	-13.75841522	14.04888535		theme_park.dungeon.generic_death			3600	int:ai.defaultCalmBehavior=2						1.5	1
lord_nyax_fiend			foyer	15.23939991	-13.75841522	14.04888535		theme_park.dungeon.generic_death			3600	int:ai.defaultCalmBehavior=2						1.5	1
lord_nyax_visionary			core	15.45926666	-13.75840759	-13.73330593		theme_park.dungeon.generic_death			9600	int:ai.defaultCalmBehavior=2						1.5	1
lord_nyax_fiend			core	15.5607338	-13.75837708	-7.078505993		theme_park.dungeon.generic_death			3600	int:ai.defaultCalmBehavior=2						1.5	1
lord_nyax_fiend			core	15.5607338	-13.75837708	-7.078505993		theme_park.dungeon.generic_death			3600	int:ai.defaultCalmBehavior=2						1.5	1
lord_nyax			core	18.59870148	-11.5	-20.89541435		theme_park.dungeon.generic_death			9600	int:ai.defaultCalmBehavior=2						1.5	1
